EESchema Schematic File Version 4
LIBS:cv_pcb1-cache
EELAYER 26 0
EELAYER END
$Descr A4 11693 8268
encoding utf-8
Sheet 1 1
Title ""
Date ""
Rev ""
Comp ""
Comment1 ""
Comment2 ""
Comment3 ""
Comment4 ""
$EndDescr
$Comp
L cv_pcb1-rescue:ADS1110 U4
U 1 1 5A8E0D4B
P 10100 4550
F 0 "U4" H 9800 4900 50  0000 L CNN
F 1 "ADS1110" H 10150 4900 50  0000 L CNN
F 2 "TO_SOT_Packages_SMD:SOT-23-6" H 10550 4900 50  0001 L CNN
F 3 "" H 9800 4900 50  0001 C CNN
	1    10100 4550
	1    0    0    -1  
$EndComp
$Comp
L cv_pcb1-rescue:LMP91002 U3
U 1 1 5A921616
P 6050 4700
F 0 "U3" H 6050 4200 60  0000 C CNN
F 1 "LMP91002" H 6100 5300 60  0000 C CNN
F 2 "jacobs_footprints:NHL_14pin_WSON" H 6050 4200 60  0001 C CNN
F 3 "" H 6050 4200 60  0001 C CNN
	1    6050 4700
	1    0    0    -1  
$EndComp
$Comp
L power:GND #PWR03
U 1 1 5A921679
P 5250 5150
F 0 "#PWR03" H 5250 4900 50  0001 C CNN
F 1 "GND" H 5250 5000 50  0000 C CNN
F 2 "" H 5250 5150 50  0001 C CNN
F 3 "" H 5250 5150 50  0001 C CNN
	1    5250 5150
	1    0    0    -1  
$EndComp
$Comp
L power:GND #PWR04
U 1 1 5A921712
P 5050 4200
F 0 "#PWR04" H 5050 3950 50  0001 C CNN
F 1 "GND" H 5050 4050 50  0000 C CNN
F 2 "" H 5050 4200 50  0001 C CNN
F 3 "" H 5050 4200 50  0001 C CNN
	1    5050 4200
	1    0    0    -1  
$EndComp
$Comp
L power:GND #PWR05
U 1 1 5A93416D
P 2700 4450
F 0 "#PWR05" H 2700 4200 50  0001 C CNN
F 1 "GND" H 2700 4300 50  0000 C CNN
F 2 "" H 2700 4450 50  0001 C CNN
F 3 "" H 2700 4450 50  0001 C CNN
	1    2700 4450
	1    0    0    -1  
$EndComp
$Comp
L power:GND #PWR06
U 1 1 5A934584
P 10100 5050
F 0 "#PWR06" H 10100 4800 50  0001 C CNN
F 1 "GND" H 10100 4900 50  0000 C CNN
F 2 "" H 10100 5050 50  0001 C CNN
F 3 "" H 10100 5050 50  0001 C CNN
	1    10100 5050
	1    0    0    -1  
$EndComp
Text GLabel 7250 5100 2    60   Output ~ 0
LMP_OUT
Text GLabel 7150 6175 2    60   BiDi ~ 0
SCL
Text GLabel 7150 6375 2    60   BiDi ~ 0
SDA
Text GLabel 4800 4500 0    60   BiDi ~ 0
SCL
Text GLabel 4800 4650 0    60   BiDi ~ 0
SDA
Text GLabel 4050 2100 3    60   BiDi ~ 0
SCL
Text GLabel 3950 2400 3    60   BiDi ~ 0
SDA
$Comp
L cv_pcb1-rescue:LED LED1
U 1 1 5A9373DB
P 4850 3200
F 0 "LED1" H 4850 3300 50  0000 C CNN
F 1 "LED" H 4850 3100 50  0000 C CNN
F 2 "LEDs:LED_0805_2012Metric" H 4850 3200 50  0001 C CNN
F 3 "" H 4850 3200 50  0001 C CNN
	1    4850 3200
	-1   0    0    1   
$EndComp
$Comp
L cv_pcb1-rescue:R R1
U 1 1 5A937888
P 5250 3200
F 0 "R1" V 5330 3200 50  0000 C CNN
F 1 "1k" V 5250 3200 50  0000 C CNN
F 2 "Resistors_SMD:R_0805_2012Metric" V 5180 3200 50  0001 C CNN
F 3 "" H 5250 3200 50  0001 C CNN
	1    5250 3200
	0    -1   -1   0   
$EndComp
$Comp
L power:GND #PWR012
U 1 1 5A93792E
P 5450 3200
F 0 "#PWR012" H 5450 2950 50  0001 C CNN
F 1 "GND" H 5450 3050 50  0000 C CNN
F 2 "" H 5450 3200 50  0001 C CNN
F 3 "" H 5450 3200 50  0001 C CNN
	1    5450 3200
	0    -1   -1   0   
$EndComp
$Comp
L cv_pcb1-rescue:TEST TP8
U 1 1 5A93908B
P 4300 1800
F 0 "TP8" H 4300 2100 50  0000 C BNN
F 1 "TEST" H 4300 2050 50  0000 C CNN
F 2 "Measurement_Points:Measurement_Point_Square-SMD-Pad_Small" H 4300 1800 50  0001 C CNN
F 3 "" H 4300 1800 50  0001 C CNN
	1    4300 1800
	0    1    1    0   
$EndComp
$Comp
L cv_pcb1-rescue:TEST TP9
U 1 1 5A939217
P 4300 2000
F 0 "TP9" H 4300 2300 50  0000 C BNN
F 1 "TEST" H 4300 2250 50  0000 C CNN
F 2 "Measurement_Points:Measurement_Point_Square-SMD-Pad_Small" H 4300 2000 50  0001 C CNN
F 3 "" H 4300 2000 50  0001 C CNN
	1    4300 2000
	0    1    1    0   
$EndComp
$Comp
L cv_pcb1-rescue:TEST TP4
U 1 1 5A9398D0
P 3550 2950
F 0 "TP4" H 3550 3250 50  0000 C BNN
F 1 "TEST" H 3550 3200 50  0000 C CNN
F 2 "Measurement_Points:Measurement_Point_Square-SMD-Pad_Small" H 3550 2950 50  0001 C CNN
F 3 "" H 3550 2950 50  0001 C CNN
	1    3550 2950
	-1   0    0    1   
$EndComp
$Comp
L cv_pcb1-rescue:TEST TP13
U 1 1 5A939F80
P 7000 4800
F 0 "TP13" H 7000 5100 50  0000 C BNN
F 1 "TEST" H 7000 5050 50  0000 C CNN
F 2 "Measurement_Points:Measurement_Point_Square-SMD-Pad_Small" H 7000 4800 50  0001 C CNN
F 3 "" H 7000 4800 50  0001 C CNN
	1    7000 4800
	0    1    1    0   
$EndComp
$Comp
L cv_pcb1-rescue:TEST TP14
U 1 1 5A93A10C
P 7350 4950
F 0 "TP14" H 7350 5250 50  0000 C BNN
F 1 "TEST" H 7350 5200 50  0000 C CNN
F 2 "Measurement_Points:Measurement_Point_Square-SMD-Pad_Small" H 7350 4950 50  0001 C CNN
F 3 "" H 7350 4950 50  0001 C CNN
	1    7350 4950
	0    1    1    0   
$EndComp
$Comp
L cv_pcb1-rescue:TEST TP15
U 1 1 5A93ADFF
P 7050 5200
F 0 "TP15" H 7050 5500 50  0000 C BNN
F 1 "TEST" H 7050 5450 50  0000 C CNN
F 2 "Measurement_Points:Measurement_Point_Square-SMD-Pad_Small" H 7050 5200 50  0001 C CNN
F 3 "" H 7050 5200 50  0001 C CNN
	1    7050 5200
	-1   0    0    1   
$EndComp
NoConn ~ 3400 1950
NoConn ~ 3400 2050
NoConn ~ 3400 2950
NoConn ~ 3400 3150
NoConn ~ 5300 4800
$Comp
L power:+3.3V #PWR015
U 1 1 5A941DD3
P 4900 4950
F 0 "#PWR015" H 4900 4800 50  0001 C CNN
F 1 "+3.3V" H 4900 5090 50  0000 C CNN
F 2 "" H 4900 4950 50  0001 C CNN
F 3 "" H 4900 4950 50  0001 C CNN
	1    4900 4950
	1    0    0    -1  
$EndComp
$Comp
L power:+3.3V #PWR016
U 1 1 5A941E2C
P 2800 650
F 0 "#PWR016" H 2800 500 50  0001 C CNN
F 1 "+3.3V" H 2800 790 50  0000 C CNN
F 2 "" H 2800 650 50  0001 C CNN
F 3 "" H 2800 650 50  0001 C CNN
	1    2800 650 
	1    0    0    -1  
$EndComp
$Comp
L power:+3.3V #PWR017
U 1 1 5A9421DF
P 10100 4050
F 0 "#PWR017" H 10100 3900 50  0001 C CNN
F 1 "+3.3V" H 10100 4190 50  0000 C CNN
F 2 "" H 10100 4050 50  0001 C CNN
F 3 "" H 10100 4050 50  0001 C CNN
	1    10100 4050
	1    0    0    -1  
$EndComp
$Comp
L cv_pcb1-rescue:Screw_Terminal_01x03 J2
U 1 1 5A9CAEFB
P 8150 3800
F 0 "J2" H 8150 4000 50  0000 C CNN
F 1 "Screw_Terminal_01x03" H 8150 3600 50  0000 C CNN
F 2 "TerminalBlocks_Phoenix:TerminalBlock_Phoenix_MPT-0,5-3-2.54_1x03_P2.54mm_Horizontal" H 8150 3800 50  0001 C CNN
F 3 "" H 8150 3800 50  0001 C CNN
	1    8150 3800
	1    0    0    -1  
$EndComp
$Comp
L cv_pcb1-rescue:R R3
U 1 1 5A9F7610
P 4350 2150
F 0 "R3" V 4430 2150 50  0000 C CNN
F 1 "10k" V 4350 2150 50  0000 C CNN
F 2 "Resistors_SMD:R_0805_2012Metric" V 4280 2150 50  0001 C CNN
F 3 "" H 4350 2150 50  0001 C CNN
	1    4350 2150
	0    1    1    0   
$EndComp
$Comp
L cv_pcb1-rescue:R R2
U 1 1 5A9F78A9
P 4350 2350
F 0 "R2" V 4430 2350 50  0000 C CNN
F 1 "10k" V 4350 2350 50  0000 C CNN
F 2 "Resistors_SMD:R_0805_2012Metric" V 4280 2350 50  0001 C CNN
F 3 "" H 4350 2350 50  0001 C CNN
	1    4350 2350
	0    1    1    0   
$EndComp
$Comp
L power:+3.3V #PWR019
U 1 1 5A9F7D8A
P 4650 2250
F 0 "#PWR019" H 4650 2100 50  0001 C CNN
F 1 "+3.3V" H 4650 2390 50  0000 C CNN
F 2 "" H 4650 2250 50  0001 C CNN
F 3 "" H 4650 2250 50  0001 C CNN
	1    4650 2250
	0    1    1    0   
$EndComp
Wire Wire Line
	6850 4650 6900 4650
Wire Wire Line
	6900 4650 6900 4700
Wire Wire Line
	6900 4700 6350 4700
Wire Wire Line
	6350 4700 6350 5000
Wire Wire Line
	6350 5000 5300 5000
Wire Wire Line
	5300 5000 5300 4950
Wire Wire Line
	4900 5000 4900 4950
Connection ~ 5300 5000
Wire Wire Line
	10100 4150 10100 4050
Wire Wire Line
	10100 4950 10100 5000
Wire Wire Line
	6850 5100 7050 5100
Wire Wire Line
	10100 5000 9700 5000
Wire Wire Line
	9700 5000 9700 4650
Connection ~ 10100 5000
Wire Wire Line
	6750 6175 7150 6175
Wire Wire Line
	6750 6375 7150 6375
Wire Wire Line
	5300 4500 4800 4500
Wire Wire Line
	5300 4650 4800 4650
Wire Wire Line
	5000 3200 5100 3200
Wire Wire Line
	5400 3200 5450 3200
Wire Wire Line
	4300 1800 4050 1800
Wire Wire Line
	4300 2000 3950 2000
Wire Wire Line
	3950 2950 3950 2750
Connection ~ 3950 2750
Wire Wire Line
	7350 4950 6850 4950
Wire Wire Line
	7000 4800 6850 4800
Wire Wire Line
	7050 5200 7050 5100
Connection ~ 7050 5100
Wire Wire Line
	4200 2150 4200 2050
Wire Wire Line
	4200 2050 4050 2050
Connection ~ 4050 2050
Wire Wire Line
	4200 2350 3950 2350
Connection ~ 3950 2350
Wire Wire Line
	4600 2150 4600 2250
Wire Wire Line
	4650 2250 4600 2250
Connection ~ 4600 2250
Wire Wire Line
	5300 4350 5200 4350
Wire Wire Line
	5200 4350 5200 4200
$Comp
L cv_pcb1-rescue:TEST TP24
U 1 1 5B0E4233
P 3750 3850
F 0 "TP24" H 3750 4150 50  0000 C BNN
F 1 "TEST" H 3750 4100 50  0000 C CNN
F 2 "Measurement_Points:Measurement_Point_Square-SMD-Pad_Small" H 3750 3850 50  0001 C CNN
F 3 "" H 3750 3850 50  0001 C CNN
	1    3750 3850
	0    1    1    0   
$EndComp
$Comp
L cv_pcb1-rescue:TEST TP25
U 1 1 5B0E42B3
P 3750 3950
F 0 "TP25" H 3750 4250 50  0000 C BNN
F 1 "TEST" H 3750 4200 50  0000 C CNN
F 2 "Measurement_Points:Measurement_Point_Square-SMD-Pad_Small" H 3750 3950 50  0001 C CNN
F 3 "" H 3750 3950 50  0001 C CNN
	1    3750 3950
	0    1    1    0   
$EndComp
Wire Wire Line
	3400 3850 3750 3850
Wire Wire Line
	3400 3950 3750 3950
Wire Wire Line
	5300 5000 4900 5000
Wire Wire Line
	10100 5000 10100 5050
Wire Wire Line
	4050 1800 4050 2050
Wire Wire Line
	3950 2000 3950 2350
Wire Wire Line
	7050 5100 7250 5100
Wire Wire Line
	4050 2050 4050 2100
Wire Wire Line
	3950 2350 3950 2400
Wire Wire Line
	4600 2250 4600 2350
Wire Wire Line
	3400 3450 4100 3450
$Comp
L power:GND #PWR0101
U 1 1 5C782900
P 4800 1600
F 0 "#PWR0101" H 4800 1350 50  0001 C CNN
F 1 "GND" H 4800 1450 50  0000 C CNN
F 2 "" H 4800 1600 50  0001 C CNN
F 3 "" H 4800 1600 50  0001 C CNN
	1    4800 1600
	1    0    0    -1  
$EndComp
$Comp
L power:+3.3V #PWR0102
U 1 1 5C78691B
P 4800 700
F 0 "#PWR0102" H 4800 550 50  0001 C CNN
F 1 "+3.3V" H 4800 840 50  0000 C CNN
F 2 "" H 4800 700 50  0001 C CNN
F 3 "" H 4800 700 50  0001 C CNN
	1    4800 700 
	1    0    0    -1  
$EndComp
Wire Wire Line
	4500 2350 4600 2350
Wire Wire Line
	4500 2150 4600 2150
Text GLabel 4000 1450 0    60   Input ~ 0
~RST
Wire Wire Line
	4050 1300 4050 1450
Wire Wire Line
	4050 1450 4000 1450
Text GLabel 900  1050 0    60   Input ~ 0
~RST
Text GLabel 8700 4450 0    60   Input ~ 0
LMP_OUT
$Comp
L Device:C_Small C4
U 1 1 5C7B8E4C
P 9300 4550
F 0 "C4" H 9392 4596 50  0000 L CNN
F 1 "22uF" H 9392 4505 50  0000 L CNN
F 2 "Capacitors_SMD:C_0805_2012Metric" H 9300 4550 50  0001 C CNN
F 3 "~" H 9300 4550 50  0001 C CNN
	1    9300 4550
	1    0    0    -1  
$EndComp
$Comp
L Device:R_US R4
U 1 1 5C7B92B2
P 8950 4450
F 0 "R4" V 8745 4450 50  0000 C CNN
F 1 "150" V 8836 4450 50  0000 C CNN
F 2 "Resistors_SMD:R_0805_2012Metric" V 8990 4440 50  0001 C CNN
F 3 "~" H 8950 4450 50  0001 C CNN
	1    8950 4450
	0    1    1    0   
$EndComp
$Comp
L power:GND #PWR0104
U 1 1 5C7BFA84
P 9300 4650
F 0 "#PWR0104" H 9300 4400 50  0001 C CNN
F 1 "GND" H 9300 4500 50  0000 C CNN
F 2 "" H 9300 4650 50  0001 C CNN
F 3 "" H 9300 4650 50  0001 C CNN
	1    9300 4650
	1    0    0    -1  
$EndComp
Wire Wire Line
	9700 4450 9300 4450
Wire Wire Line
	9300 4450 9100 4450
Connection ~ 9300 4450
Wire Wire Line
	8700 4450 8800 4450
$Comp
L Switch:SW_Push SW1
U 1 1 5C81963E
P 1050 1450
F 0 "SW1" V 1025 1800 50  0000 R CNN
F 1 "SW_Push" V 1125 1900 50  0000 R CNN
F 2 "Buttons_Switches_SMD:SW_Push_SPST_NO_Alps_SKRK" H 1050 1650 50  0001 C CNN
F 3 "" H 1050 1650 50  0001 C CNN
	1    1050 1450
	0    -1   1    0   
$EndComp
$Comp
L power:GND #PWR0107
U 1 1 5C83B042
P 1050 1750
F 0 "#PWR0107" H 1050 1500 50  0001 C CNN
F 1 "GND" H 1050 1600 50  0000 C CNN
F 2 "" H 1050 1750 50  0001 C CNN
F 3 "" H 1050 1750 50  0001 C CNN
	1    1050 1750
	1    0    0    -1  
$EndComp
Wire Wire Line
	1050 1750 1050 1650
$Comp
L maxim-ic:MAX1555 IC1
U 1 1 5C831BC3
P 2650 5300
F 0 "IC1" H 2650 5747 60  0000 C CNN
F 1 "MAX1555" H 2650 5641 60  0000 C CNN
F 2 "Tinkerforge_connectors:SOT23-5" H 2650 5300 60  0001 C CNN
F 3 "" H 2650 5641 60  0000 C CNN
	1    2650 5300
	-1   0    0    -1  
$EndComp
$Comp
L power:GND #PWR0108
U 1 1 5C861410
P 3250 5400
F 0 "#PWR0108" H 3250 5150 50  0001 C CNN
F 1 "GND" H 3250 5250 50  0000 C CNN
F 2 "" H 3250 5400 50  0001 C CNN
F 3 "" H 3250 5400 50  0001 C CNN
	1    3250 5400
	1    0    0    -1  
$EndComp
Wire Wire Line
	3250 5400 3250 5300
Wire Wire Line
	3250 5300 3000 5300
$Comp
L power:GND #PWR0109
U 1 1 5C8889ED
P 950 3800
F 0 "#PWR0109" H 950 3550 50  0001 C CNN
F 1 "GND" H 950 3650 50  0000 C CNN
F 2 "" H 950 3800 50  0001 C CNN
F 3 "" H 950 3800 50  0001 C CNN
	1    950  3800
	1    0    0    -1  
$EndComp
Wire Wire Line
	3000 5100 3150 5100
Wire Wire Line
	3150 4750 1900 4750
NoConn ~ 1250 3450
NoConn ~ 2300 5400
Wire Wire Line
	3000 5500 3050 5500
Wire Wire Line
	3050 5500 3050 5750
$Comp
L Device:C_Small C6
U 1 1 5C8DB5B4
P 2050 5450
F 0 "C6" H 2142 5496 50  0000 L CNN
F 1 "1uF" H 2142 5405 50  0000 L CNN
F 2 "Capacitors_SMD:C_0805_2012Metric" H 2050 5450 50  0001 C CNN
F 3 "~" H 2050 5450 50  0001 C CNN
	1    2050 5450
	1    0    0    -1  
$EndComp
$Comp
L Device:C_Small C5
U 1 1 5C8E347F
P 1900 4950
F 0 "C5" H 1992 4996 50  0000 L CNN
F 1 "1uF" H 1992 4905 50  0000 L CNN
F 2 "Capacitors_SMD:C_0805_2012Metric" H 1900 4950 50  0001 C CNN
F 3 "~" H 1900 4950 50  0001 C CNN
	1    1900 4950
	1    0    0    -1  
$EndComp
$Comp
L power:GND #PWR0110
U 1 1 5C8EB393
P 1900 5050
F 0 "#PWR0110" H 1900 4800 50  0001 C CNN
F 1 "GND" H 1900 4900 50  0000 C CNN
F 2 "" H 1900 5050 50  0001 C CNN
F 3 "" H 1900 5050 50  0001 C CNN
	1    1900 5050
	1    0    0    -1  
$EndComp
$Comp
L power:GND #PWR0111
U 1 1 5C8F3251
P 2050 5550
F 0 "#PWR0111" H 2050 5300 50  0001 C CNN
F 1 "GND" H 2050 5400 50  0000 C CNN
F 2 "" H 2050 5550 50  0001 C CNN
F 3 "" H 2050 5550 50  0001 C CNN
	1    2050 5550
	1    0    0    -1  
$EndComp
Wire Wire Line
	3150 4750 3150 5100
Wire Wire Line
	2300 5200 2150 5200
Wire Wire Line
	1900 4850 1900 4750
Wire Wire Line
	3050 5750 3600 5750
$Comp
L power:+3.3V #PWR0112
U 1 1 5C898DFB
P 3600 5250
F 0 "#PWR0112" H 3600 5100 50  0001 C CNN
F 1 "+3.3V" H 3600 5390 50  0000 C CNN
F 2 "" H 3600 5250 50  0001 C CNN
F 3 "" H 3600 5250 50  0001 C CNN
	1    3600 5250
	1    0    0    -1  
$EndComp
$Comp
L Device:R_US R5
U 1 1 5C8A20CE
P 3600 5500
F 0 "R5" V 3395 5500 50  0000 C CNN
F 1 "100k" V 3486 5500 50  0000 C CNN
F 2 "Resistors_SMD:R_0805_2012Metric" V 3640 5490 50  0001 C CNN
F 3 "~" H 3600 5500 50  0001 C CNN
	1    3600 5500
	-1   0    0    1   
$EndComp
Wire Wire Line
	3600 5650 3600 5750
Connection ~ 3600 5750
Wire Wire Line
	3600 5750 3750 5750
Wire Wire Line
	3600 5250 3600 5350
$Comp
L cv_pcb1-rescue:MAX77596 U5
U 1 1 5C8FC204
P 2450 6450
F 0 "U5" H 2450 6587 60  0000 C CNN
F 1 "MAX77596" H 2450 6481 60  0000 C CNN
F 2 "Housings_DFN_QFN:DFN-10-1EP_3x3mm_P0.5mm_EP1.75x2.7mm" H 2450 6450 60  0001 C CNN
F 3 "" H 2450 6450 60  0001 C CNN
	1    2450 6450
	-1   0    0    -1  
$EndComp
Wire Wire Line
	2000 7250 1750 7250
Wire Wire Line
	2000 7100 1750 7100
Wire Wire Line
	1750 7100 1750 7250
$Comp
L power:+3.3V #PWR0103
U 1 1 5C91CA69
P 3250 6750
F 0 "#PWR0103" H 3250 6600 50  0001 C CNN
F 1 "+3.3V" H 3250 6890 50  0000 C CNN
F 2 "" H 3250 6750 50  0001 C CNN
F 3 "" H 3250 6750 50  0001 C CNN
	1    3250 6750
	1    0    0    -1  
$EndComp
Wire Wire Line
	2900 6950 2950 6950
$Comp
L Device:C_Small C1
U 1 1 5C92DB07
P 1950 6800
F 0 "C1" H 1964 6876 50  0000 L CNN
F 1 "0.1uF" H 1940 6954 50  0000 L CNN
F 2 "Capacitors_SMD:C_0805_2012Metric" H 1950 6800 50  0001 C CNN
F 3 "~" H 1950 6800 50  0001 C CNN
	1    1950 6800
	-1   0    0    -1  
$EndComp
Wire Wire Line
	3050 6500 3150 6500
Wire Wire Line
	2000 6950 1950 6950
Wire Wire Line
	1950 6950 1950 6900
Wire Wire Line
	2000 6650 1950 6650
Wire Wire Line
	1950 6650 1950 6700
Text GLabel 3350 6350 2    60   Output ~ 0
~775_RESET
$Comp
L Device:C_Small C7
U 1 1 5C9D3EB3
P 4000 7400
F 0 "C7" H 4092 7446 50  0000 L CNN
F 1 "1uF" H 4092 7355 50  0000 L CNN
F 2 "Capacitors_SMD:C_0805_2012Metric" H 4000 7400 50  0001 C CNN
F 3 "~" H 4000 7400 50  0001 C CNN
	1    4000 7400
	1    0    0    -1  
$EndComp
$Comp
L power:GND #PWR0114
U 1 1 5C9EFD87
P 4000 7550
F 0 "#PWR0114" H 4000 7300 50  0001 C CNN
F 1 "GND" H 4000 7400 50  0000 C CNN
F 2 "" H 4000 7550 50  0001 C CNN
F 3 "" H 4000 7550 50  0001 C CNN
	1    4000 7550
	1    0    0    -1  
$EndComp
Wire Wire Line
	4000 7500 4000 7550
Wire Wire Line
	3100 7250 3100 7100
Wire Wire Line
	3100 7100 2900 7100
$Comp
L Device:C_Small C2
U 1 1 5CA5ADB7
P 3600 6800
F 0 "C2" H 3692 6846 50  0000 L CNN
F 1 "22uF" H 3692 6755 50  0000 L CNN
F 2 "Capacitors_SMD:C_0805_2012Metric" H 3600 6800 50  0001 C CNN
F 3 "~" H 3600 6800 50  0001 C CNN
	1    3600 6800
	0    -1   -1   0   
$EndComp
$Comp
L power:GND #PWR0115
U 1 1 5CA5ADBF
P 3700 6800
F 0 "#PWR0115" H 3700 6550 50  0001 C CNN
F 1 "GND" H 3700 6650 50  0000 C CNN
F 2 "" H 3700 6800 50  0001 C CNN
F 3 "" H 3700 6800 50  0001 C CNN
	1    3700 6800
	0    -1   -1   0   
$EndComp
Wire Wire Line
	3250 6750 3250 6800
Wire Wire Line
	3050 6500 3050 6800
Connection ~ 3250 6800
Wire Wire Line
	3250 6800 3250 6950
Wire Wire Line
	950  3650 950  3700
Wire Wire Line
	5300 5100 5250 5100
Wire Wire Line
	5250 5100 5250 5150
Wire Wire Line
	3000 7400 3000 7250
Wire Wire Line
	3000 7250 2900 7250
Wire Wire Line
	3000 7400 3100 7400
Wire Wire Line
	2900 6800 3050 6800
Wire Wire Line
	2950 6650 2900 6650
Wire Wire Line
	1050 1250 1050 1050
Wire Wire Line
	900  1050 1050 1050
Connection ~ 1050 1050
Text GLabel 1300 1700 3    60   Input ~ 0
~775_RESET
Wire Wire Line
	1300 1050 1300 1700
Wire Wire Line
	1050 1050 1300 1050
Wire Wire Line
	2950 6350 3150 6350
$Comp
L power:+3.3V #PWR0116
U 1 1 5CA91D9F
P 3150 5950
F 0 "#PWR0116" H 3150 5800 50  0001 C CNN
F 1 "+3.3V" H 3150 6090 50  0000 C CNN
F 2 "" H 3150 5950 50  0001 C CNN
F 3 "" H 3150 5950 50  0001 C CNN
	1    3150 5950
	1    0    0    -1  
$EndComp
$Comp
L Device:R_US R7
U 1 1 5CA91DA5
P 3150 6150
F 0 "R7" V 2945 6150 50  0000 C CNN
F 1 "10k" V 3036 6150 50  0000 C CNN
F 2 "Resistors_SMD:R_0805_2012Metric" V 3190 6140 50  0001 C CNN
F 3 "~" H 3150 6150 50  0001 C CNN
	1    3150 6150
	-1   0    0    1   
$EndComp
Wire Wire Line
	3150 6000 3150 5950
Wire Wire Line
	2950 6350 2950 6650
Wire Wire Line
	3150 6300 3150 6350
Connection ~ 3150 6350
Wire Wire Line
	3150 6350 3350 6350
Wire Wire Line
	2150 5200 2150 5350
Wire Wire Line
	2150 5350 2050 5350
Connection ~ 2050 5350
Wire Wire Line
	2000 6800 1750 6800
Connection ~ 5200 4200
Wire Wire Line
	5200 4200 5050 4200
Wire Wire Line
	5300 4200 5200 4200
Wire Wire Line
	7950 3700 7600 3700
Wire Wire Line
	7600 3700 7600 4200
Wire Wire Line
	7950 3800 7650 3800
Wire Wire Line
	7950 3900 7800 3900
Wire Wire Line
	7800 3900 7800 4500
Wire Wire Line
	950  3700 850  3700
Wire Wire Line
	850  3700 850  3650
Connection ~ 950  3700
Wire Wire Line
	950  3700 950  3800
Wire Wire Line
	4000 7300 4000 7250
Wire Wire Line
	3100 7250 4000 7250
Text Label 3050 7400 0    60   ~ 0
775_ENABLE
Wire Wire Line
	3600 3750 3400 3750
Text Label 3600 3750 0    60   ~ 0
775_ENABLE
Text Label 4100 3450 0    60   ~ 0
MODE
Text Label 3150 6500 0    60   ~ 0
MODE
$Comp
L power:+BATT #PWR0117
U 1 1 5D2B29BE
P 1350 6500
F 0 "#PWR0117" H 1350 6350 50  0001 C CNN
F 1 "+BATT" H 1365 6673 50  0000 C CNN
F 2 "" H 1350 6500 50  0001 C CNN
F 3 "" H 1350 6500 50  0001 C CNN
	1    1350 6500
	1    0    0    -1  
$EndComp
$Comp
L power:+BATT #PWR0118
U 1 1 5D2C0AE2
P 1650 5350
F 0 "#PWR0118" H 1650 5200 50  0001 C CNN
F 1 "+BATT" H 1665 5523 50  0000 C CNN
F 2 "" H 1650 5350 50  0001 C CNN
F 3 "" H 1650 5350 50  0001 C CNN
	1    1650 5350
	1    0    0    -1  
$EndComp
Wire Wire Line
	1650 5350 2050 5350
Wire Wire Line
	2800 700  2900 700 
Wire Wire Line
	2900 700  2900 750 
Wire Wire Line
	2800 650  2800 700 
Wire Wire Line
	2800 750  2800 700 
Connection ~ 2800 700 
Wire Wire Line
	2800 4400 2700 4400
Wire Wire Line
	2700 4400 2700 4450
Wire Wire Line
	2700 4350 2700 4400
Connection ~ 2700 4400
Wire Wire Line
	2800 4350 2800 4400
NoConn ~ 3400 3250
Wire Wire Line
	4450 3200 4450 3550
Wire Wire Line
	4450 3200 4700 3200
Wire Wire Line
	3400 3550 4450 3550
Wire Wire Line
	3400 3650 4700 3650
Wire Wire Line
	3400 1350 3700 1350
Wire Wire Line
	3700 1350 3700 1000
Wire Wire Line
	3400 1250 3850 1250
Wire Wire Line
	3850 1250 3850 1100
Wire Wire Line
	3550 1200 3550 1150
Wire Wire Line
	3550 1150 3400 1150
$Comp
L Connector:AVR-ISP-6 J1
U 1 1 5C77E7E4
P 4700 1200
F 0 "J1" H 4420 1296 50  0000 R CNN
F 1 "AVR-ISP-6" H 4420 1205 50  0000 R CNN
F 2 "Connectors:6 Pin ISP" V 4450 1250 50  0001 C CNN
F 3 " ~" H 3425 650 50  0001 C CNN
	1    4700 1200
	-1   0    0    -1  
$EndComp
Wire Wire Line
	3700 1000 4300 1000
Wire Wire Line
	3850 1100 4300 1100
Wire Wire Line
	3550 1200 4300 1200
Wire Wire Line
	4050 1300 4300 1300
NoConn ~ 3400 1050
NoConn ~ 3400 1750
NoConn ~ 3400 1650
NoConn ~ 3400 1550
Wire Wire Line
	4050 1800 3650 1800
Wire Wire Line
	3650 1800 3650 2250
Wire Wire Line
	3650 2250 3400 2250
Connection ~ 4050 1800
Wire Wire Line
	3950 2000 3750 2000
Wire Wire Line
	3750 2000 3750 2350
Wire Wire Line
	3750 2350 3400 2350
Connection ~ 3950 2000
Wire Wire Line
	3700 2750 3700 2450
Wire Wire Line
	3700 2450 3400 2450
Wire Wire Line
	3700 2750 3950 2750
Wire Wire Line
	3550 2550 3400 2550
NoConn ~ 2200 1250
NoConn ~ 2200 1450
NoConn ~ 2200 1650
NoConn ~ 3400 2850
NoConn ~ 3400 2750
NoConn ~ 3400 2650
Text Label 4700 3650 0    60   ~ 0
~CHG
Text Label 3750 5750 0    60   ~ 0
~CHG
$Comp
L cv_pcb1-rescue:LIPOIn J3
U 1 1 5D8D50CB
P 4075 6025
F 0 "J3" H 4075 6225 50  0000 L CNN
F 1 "LIPOIn" H 3925 6125 50  0000 L CNN
F 2 "S2B-PH-K-S_LF__SN_:JST_S2B-PH-K-S(LF)(SN)" H 4075 6025 50  0001 C CNN
F 3 "~" H 4075 6025 50  0001 C CNN
	1    4075 6025
	-1   0    0    -1  
$EndComp
Wire Wire Line
	1900 3050 1900 4750
Wire Wire Line
	1250 3050 1800 3050
Connection ~ 1900 4750
$Comp
L Connector:USB_B_Micro J4
U 1 1 5C88883E
P 950 3250
F 0 "J4" H 1005 3717 50  0000 C CNN
F 1 "USB_B_Micro" H 1005 3626 50  0000 C CNN
F 2 "Connectors_USB:USB_CV_MOLEX_105164-0001" H 1100 3200 50  0001 C CNN
F 3 "~" H 1100 3200 50  0001 C CNN
	1    950  3250
	1    0    0    -1  
$EndComp
Wire Wire Line
	1250 3250 1525 3250
$Comp
L Device:C_Small C8
U 1 1 5D971224
P 1950 2550
F 0 "C8" H 2042 2596 50  0000 L CNN
F 1 "1uF" H 2042 2505 50  0000 L CNN
F 2 "Capacitors_SMD:C_0805_2012Metric" H 1950 2550 50  0001 C CNN
F 3 "~" H 1950 2550 50  0001 C CNN
	1    1950 2550
	1    0    0    -1  
$EndComp
$Comp
L power:GND #PWR0120
U 1 1 5D97122B
P 1950 2650
F 0 "#PWR0120" H 1950 2400 50  0001 C CNN
F 1 "GND" H 1950 2500 50  0000 C CNN
F 2 "" H 1950 2650 50  0001 C CNN
F 3 "" H 1950 2650 50  0001 C CNN
	1    1950 2650
	1    0    0    -1  
$EndComp
Wire Wire Line
	1950 2450 1950 2350
Wire Wire Line
	2200 2350 1950 2350
Wire Wire Line
	2700 750  2700 700 
Wire Wire Line
	2700 700  2800 700 
Wire Wire Line
	2200 1850 1800 1850
Wire Wire Line
	1800 1850 1800 3050
Connection ~ 1800 3050
Wire Wire Line
	1800 3050 1900 3050
$Comp
L Device:C_Small C9
U 1 1 5C8F8A50
P 1350 6800
F 0 "C9" H 1154 6828 50  0000 L CNN
F 1 "4.7uF" H 1072 6762 50  0000 L CNN
F 2 "Capacitors_SMD:C_0805_2012Metric" H 1350 6800 50  0001 C CNN
F 3 "~" H 1350 6800 50  0001 C CNN
	1    1350 6800
	1    0    0    -1  
$EndComp
$Comp
L power:GND #PWR01
U 1 1 5C8F8A57
P 1350 6950
F 0 "#PWR01" H 1350 6700 50  0001 C CNN
F 1 "GND" H 1350 6800 50  0000 C CNN
F 2 "" H 1350 6950 50  0001 C CNN
F 3 "" H 1350 6950 50  0001 C CNN
	1    1350 6950
	1    0    0    -1  
$EndComp
Wire Wire Line
	1350 6950 1350 7000
Wire Wire Line
	1350 6700 1350 6650
$Comp
L Device:C_Small C10
U 1 1 5C90979B
P 1600 6800
F 0 "C10" H 1658 6690 50  0000 L CNN
F 1 "0.1uF" H 1644 6756 50  0000 L CNN
F 2 "Capacitors_SMD:C_0805_2012Metric" H 1600 6800 50  0001 C CNN
F 3 "~" H 1600 6800 50  0001 C CNN
	1    1600 6800
	1    0    0    -1  
$EndComp
$Comp
L power:GND #PWR02
U 1 1 5C9097A2
P 1600 6950
F 0 "#PWR02" H 1600 6700 50  0001 C CNN
F 1 "GND" H 1600 6800 50  0000 C CNN
F 2 "" H 1600 6950 50  0001 C CNN
F 3 "" H 1600 6950 50  0001 C CNN
	1    1600 6950
	1    0    0    -1  
$EndComp
Wire Wire Line
	1600 6900 1600 6950
$Comp
L Device:L_Core_Iron L1
U 1 1 5C91B3F0
P 2450 7600
F 0 "L1" V 2272 7600 50  0000 C CNN
F 1 "10uH" V 2363 7600 50  0000 C CNN
F 2 "Inductors_SMD:L_0805_2012Metric" H 2450 7600 50  0001 C CNN
F 3 "~" H 2450 7600 50  0001 C CNN
	1    2450 7600
	0    1    1    0   
$EndComp
Wire Wire Line
	1950 6950 1950 7600
Wire Wire Line
	1950 7600 2300 7600
Connection ~ 1950 6950
Wire Wire Line
	2600 7600 2950 7600
Wire Wire Line
	2950 7600 2950 6950
Connection ~ 2950 6950
Wire Wire Line
	2950 6950 3250 6950
Wire Wire Line
	3250 6800 3500 6800
Wire Wire Line
	1350 6650 1350 6500
Connection ~ 1350 6650
Wire Wire Line
	1750 6800 1750 6650
Wire Wire Line
	1350 6650 1600 6650
Wire Wire Line
	1600 6700 1600 6650
Connection ~ 1600 6650
Wire Wire Line
	1600 6650 1750 6650
Wire Wire Line
	1350 6950 1350 6900
Connection ~ 1350 6950
$Comp
L RF_Bluetooth:nRF8001 U1
U 1 1 5C919228
P 7725 2125
F 0 "U1" H 8225 2950 50  0000 C CNN
F 1 "nRF8001" H 8200 2875 50  0000 C CNN
F 2 "Housings_DFN_QFN:QFN-32-1EP_5x5mm_P0.5mm_EP3.45x3.45mm" H 7725 925 50  0001 C CNN
F 3 "https://www.nordicsemi.com/eng/nordic/content_download/2981/38488/file/nRF8001_PS_v1.3.pdf" H 7725 2075 50  0001 C CNN
	1    7725 2125
	1    0    0    -1  
$EndComp
$Comp
L power:GND #PWR0123
U 1 1 5C93D98C
P 7725 3000
F 0 "#PWR0123" H 7725 2750 50  0001 C CNN
F 1 "GND" H 7725 2850 50  0000 C CNN
F 2 "" H 7725 3000 50  0001 C CNN
F 3 "" H 7725 3000 50  0001 C CNN
	1    7725 3000
	1    0    0    -1  
$EndComp
Wire Wire Line
	7725 3000 7725 2925
Wire Wire Line
	7725 3000 7825 3000
Wire Wire Line
	7825 3000 7825 2925
Connection ~ 7725 3000
Wire Wire Line
	7825 3000 7925 3000
Wire Wire Line
	7925 3000 7925 2925
Connection ~ 7825 3000
Wire Wire Line
	7425 3000 7425 2925
Wire Wire Line
	7425 3000 7525 3000
Wire Wire Line
	7525 2925 7525 3000
Connection ~ 7525 3000
Wire Wire Line
	7525 3000 7625 3000
Wire Wire Line
	7625 2925 7625 3000
Connection ~ 7625 3000
$Comp
L power:+3.3V #PWR0124
U 1 1 5C9D1B4D
P 7725 1225
F 0 "#PWR0124" H 7725 1075 50  0001 C CNN
F 1 "+3.3V" H 7725 1425 50  0000 C CNN
F 2 "" H 7725 1225 50  0001 C CNN
F 3 "" H 7725 1225 50  0001 C CNN
	1    7725 1225
	1    0    0    -1  
$EndComp
Wire Wire Line
	7725 1225 7725 1325
Wire Wire Line
	7725 1225 7825 1225
Wire Wire Line
	7825 1225 7825 1325
Connection ~ 7725 1225
Wire Wire Line
	7825 1225 7925 1225
Wire Wire Line
	7925 1225 7925 1325
Connection ~ 7825 1225
Wire Wire Line
	7625 1225 7625 1325
Wire Wire Line
	7625 1225 7525 1225
Wire Wire Line
	7525 1225 7525 1325
Wire Wire Line
	7625 1225 7725 1225
Connection ~ 7625 1225
$Comp
L Device:C_Small C16
U 1 1 5CA94B3B
P 7325 1225
F 0 "C16" V 7375 1275 50  0000 L CNN
F 1 "100nF" V 7450 1125 50  0000 L CNN
F 2 "Capacitors_SMD:C_0805_2012Metric" H 7325 1225 50  0001 C CNN
F 3 "~" H 7325 1225 50  0001 C CNN
	1    7325 1225
	0    1    1    0   
$EndComp
$Comp
L power:GND #PWR0125
U 1 1 5CA94B42
P 7225 1225
F 0 "#PWR0125" H 7225 975 50  0001 C CNN
F 1 "GND" H 7225 1075 50  0000 C CNN
F 2 "" H 7225 1225 50  0001 C CNN
F 3 "" H 7225 1225 50  0001 C CNN
	1    7225 1225
	0    1    1    0   
$EndComp
Wire Wire Line
	7425 1225 7525 1225
Connection ~ 7525 1225
$Comp
L Device:C_Small C12
U 1 1 5CB35183
P 5825 1775
F 0 "C12" H 5917 1821 50  0000 L CNN
F 1 "100nF" H 5917 1730 50  0000 L CNN
F 2 "Capacitors_SMD:C_0805_2012Metric" H 5825 1775 50  0001 C CNN
F 3 "~" H 5825 1775 50  0001 C CNN
	1    5825 1775
	1    0    0    -1  
$EndComp
$Comp
L power:GND #PWR0126
U 1 1 5CB3518A
P 5825 1875
F 0 "#PWR0126" H 5825 1625 50  0001 C CNN
F 1 "GND" H 5825 1725 50  0000 C CNN
F 2 "" H 5825 1875 50  0001 C CNN
F 3 "" H 5825 1875 50  0001 C CNN
	1    5825 1875
	1    0    0    -1  
$EndComp
$Comp
L Device:C_Small C14
U 1 1 5CB4936B
P 6225 1850
F 0 "C14" H 6317 1896 50  0000 L CNN
F 1 "33nF" H 6317 1805 50  0000 L CNN
F 2 "Capacitors_SMD:C_0805_2012Metric" H 6225 1850 50  0001 C CNN
F 3 "~" H 6225 1850 50  0001 C CNN
	1    6225 1850
	1    0    0    -1  
$EndComp
$Comp
L power:GND #PWR0127
U 1 1 5CB49372
P 6225 1950
F 0 "#PWR0127" H 6225 1700 50  0001 C CNN
F 1 "GND" H 6225 1800 50  0000 C CNN
F 2 "" H 6225 1950 50  0001 C CNN
F 3 "" H 6225 1950 50  0001 C CNN
	1    6225 1950
	1    0    0    -1  
$EndComp
Wire Wire Line
	6225 1725 6225 1750
Wire Wire Line
	5825 1625 5825 1675
$Comp
L Device:C_Small C13
U 1 1 5CBD6D77
P 5850 2350
F 0 "C13" H 5942 2396 50  0000 L CNN
F 1 "1.5nF" H 5942 2305 50  0000 L CNN
F 2 "Capacitors_SMD:C_0805_2012Metric" H 5850 2350 50  0001 C CNN
F 3 "~" H 5850 2350 50  0001 C CNN
	1    5850 2350
	-1   0    0    -1  
$EndComp
$Comp
L power:GND #PWR0128
U 1 1 5CBD6D7E
P 5850 2450
F 0 "#PWR0128" H 5850 2200 50  0001 C CNN
F 1 "GND" H 5850 2300 50  0000 C CNN
F 2 "" H 5850 2450 50  0001 C CNN
F 3 "" H 5850 2450 50  0001 C CNN
	1    5850 2450
	1    0    0    -1  
$EndComp
$Comp
L Device:C_Small C15
U 1 1 5CBEB67E
P 6475 2375
F 0 "C15" H 6567 2421 50  0000 L CNN
F 1 "1.5nF" H 6567 2330 50  0000 L CNN
F 2 "Capacitors_SMD:C_0805_2012Metric" H 6475 2375 50  0001 C CNN
F 3 "~" H 6475 2375 50  0001 C CNN
	1    6475 2375
	1    0    0    -1  
$EndComp
$Comp
L power:GND #PWR0129
U 1 1 5CBEB685
P 6475 2475
F 0 "#PWR0129" H 6475 2225 50  0001 C CNN
F 1 "GND" H 6475 2325 50  0000 C CNN
F 2 "" H 6475 2475 50  0001 C CNN
F 3 "" H 6475 2475 50  0001 C CNN
	1    6475 2475
	1    0    0    -1  
$EndComp
Wire Wire Line
	5850 2200 5850 2250
Wire Wire Line
	6475 2250 6475 2275
Wire Wire Line
	5825 1625 6925 1625
Wire Wire Line
	6225 1725 6925 1725
Wire Wire Line
	6525 2200 6525 1825
Wire Wire Line
	6525 2200 5975 2200
Wire Wire Line
	6575 1925 6575 2250
Wire Wire Line
	6575 2250 6475 2250
$Comp
L Device:Crystal Y1
U 1 1 5CCAB6BD
P 6175 2600
F 0 "Y1" H 6175 2775 50  0000 C CNN
F 1 "32.768kHz" H 6175 2850 50  0000 C CNN
F 2 "Oscillators:Oscillator_SMD_EuroQuartz_XO32-4Pin_3.2x2.5mm" H 6175 2600 50  0001 C CNN
F 3 "~" H 6175 2600 50  0001 C CNN
	1    6175 2600
	1    0    0    1   
$EndComp
Wire Wire Line
	6475 2250 6375 2250
Wire Wire Line
	6375 2250 6375 2600
Wire Wire Line
	6375 2600 6325 2600
Connection ~ 6475 2250
Wire Wire Line
	5975 2200 5975 2600
Connection ~ 5975 2200
Wire Wire Line
	5975 2200 5850 2200
Wire Wire Line
	6025 2600 5975 2600
Text Label 6925 2025 2    60   ~ 0
ACTIVE
Text Label 6850 2225 2    60   ~ 0
TX
$Comp
L Device:C_Small C17
U 1 1 5CD45E81
P 7375 1075
F 0 "C17" V 7475 1125 50  0000 L CNN
F 1 "100nF" V 7550 1125 50  0000 L CNN
F 2 "Capacitors_SMD:C_0805_2012Metric" H 7375 1075 50  0001 C CNN
F 3 "~" H 7375 1075 50  0001 C CNN
	1    7375 1075
	0    1    -1   0   
$EndComp
$Comp
L power:GND #PWR0130
U 1 1 5CD45E88
P 7275 1075
F 0 "#PWR0130" H 7275 825 50  0001 C CNN
F 1 "GND" H 7275 925 50  0000 C CNN
F 2 "" H 7275 1075 50  0001 C CNN
F 3 "" H 7275 1075 50  0001 C CNN
	1    7275 1075
	0    1    -1   0   
$EndComp
Wire Wire Line
	7625 1225 7625 1075
Wire Wire Line
	7625 1075 7475 1075
Text Label 6850 2125 2    60   ~ 0
RX
$Comp
L Device:C_Small C19
U 1 1 5CDCCFAE
P 8725 2450
F 0 "C19" H 8817 2496 50  0000 L CNN
F 1 "2.2nF" H 8817 2405 50  0000 L CNN
F 2 "Capacitors_SMD:C_0805_2012Metric" H 8725 2450 50  0001 C CNN
F 3 "~" H 8725 2450 50  0001 C CNN
	1    8725 2450
	1    0    0    -1  
$EndComp
$Comp
L power:GND #PWR0131
U 1 1 5CDCCFB5
P 8725 2550
F 0 "#PWR0131" H 8725 2300 50  0001 C CNN
F 1 "GND" H 8725 2400 50  0000 C CNN
F 2 "" H 8725 2550 50  0001 C CNN
F 3 "" H 8725 2550 50  0001 C CNN
	1    8725 2550
	1    0    0    -1  
$EndComp
Wire Wire Line
	8525 2225 8725 2225
$Comp
L Device:L L2
U 1 1 5CE11203
P 9250 2050
F 0 "L2" H 9325 2075 50  0000 L CNN
F 1 "8.2mH" H 9300 1975 50  0000 L CNN
F 2 "Inductors_SMD:L_0805_2012Metric" H 9250 2050 50  0001 C CNN
F 3 "~" H 9250 2050 50  0001 C CNN
	1    9250 2050
	1    0    0    -1  
$EndComp
$Comp
L Device:L L3
U 1 1 5CE3E925
P 9525 2350
F 0 "L3" H 9484 2304 50  0000 R CNN
F 1 "5.6nH" H 9484 2395 50  0000 R CNN
F 2 "Inductors_SMD:L_0805_2012Metric" H 9525 2350 50  0001 C CNN
F 3 "~" H 9525 2350 50  0001 C CNN
	1    9525 2350
	-1   0    0    1   
$EndComp
$Comp
L Device:L L4
U 1 1 5CE82A2B
P 9575 1900
F 0 "L4" V 9500 1900 50  0000 C CNN
F 1 "3.9nH" V 9650 1900 50  0000 C CNN
F 2 "Inductors_SMD:L_0805_2012Metric" H 9575 1900 50  0001 C CNN
F 3 "~" H 9575 1900 50  0001 C CNN
	1    9575 1900
	0    -1   1    0   
$EndComp
Wire Wire Line
	9125 2025 8525 2025
Wire Wire Line
	8525 2125 8725 2125
Wire Wire Line
	8725 2125 8725 2200
Wire Wire Line
	8725 2225 8725 2275
Wire Wire Line
	9525 2500 9050 2500
Wire Wire Line
	9050 2500 9050 2275
Wire Wire Line
	9050 2275 8725 2275
Connection ~ 8725 2275
Wire Wire Line
	8725 2275 8725 2350
$Comp
L Device:C_Small C22
U 1 1 5D013ECB
P 9925 1900
F 0 "C22" V 10025 1950 50  0000 L CNN
F 1 "1.8pF" V 10100 1950 50  0000 L CNN
F 2 "Capacitors_SMD:C_0805_2012Metric" H 9925 1900 50  0001 C CNN
F 3 "~" H 9925 1900 50  0001 C CNN
	1    9925 1900
	0    1    -1   0   
$EndComp
Wire Wire Line
	9825 1900 9725 1900
$Comp
L Device:C_Small C23
U 1 1 5D044358
P 10300 2100
F 0 "C23" H 10392 2146 50  0000 L CNN
F 1 "1.2pF" H 10400 2075 50  0000 L CNN
F 2 "Capacitors_SMD:C_0805_2012Metric" H 10300 2100 50  0001 C CNN
F 3 "~" H 10300 2100 50  0001 C CNN
	1    10300 2100
	-1   0    0    -1  
$EndComp
$Comp
L power:GND #PWR0132
U 1 1 5D04435F
P 10300 2200
F 0 "#PWR0132" H 10300 1950 50  0001 C CNN
F 1 "GND" H 10300 2050 50  0000 C CNN
F 2 "" H 10300 2200 50  0001 C CNN
F 3 "" H 10300 2200 50  0001 C CNN
	1    10300 2200
	-1   0    0    -1  
$EndComp
Wire Wire Line
	10300 1900 10300 2000
$Comp
L Device:R_US R6
U 1 1 5D11EF11
P 9175 1700
F 0 "R6" V 8970 1700 50  0000 C CNN
F 1 "22k" V 9061 1700 50  0000 C CNN
F 2 "Resistors_SMD:R_0805_2012Metric" V 9215 1690 50  0001 C CNN
F 3 "~" H 9175 1700 50  0001 C CNN
	1    9175 1700
	0    1    1    0   
$EndComp
Wire Wire Line
	8525 1925 8950 1925
Wire Wire Line
	9325 1700 9700 1700
$Comp
L Device:C_Small C21
U 1 1 5D183358
P 9700 1525
F 0 "C21" H 9792 1571 50  0000 L CNN
F 1 "1.0nF" H 9792 1480 50  0000 L CNN
F 2 "Capacitors_SMD:C_0805_2012Metric" H 9700 1525 50  0001 C CNN
F 3 "~" H 9700 1525 50  0001 C CNN
	1    9700 1525
	-1   0    0    -1  
$EndComp
$Comp
L Device:C_Small C18
U 1 1 5D349C65
P 8625 1050
F 0 "C18" H 8717 1096 50  0000 L CNN
F 1 "12pF" H 8717 1005 50  0000 L CNN
F 2 "Capacitors_SMD:C_0805_2012Metric" H 8625 1050 50  0001 C CNN
F 3 "~" H 8625 1050 50  0001 C CNN
	1    8625 1050
	-1   0    0    1   
$EndComp
$Comp
L power:GND #PWR0133
U 1 1 5D349C6C
P 8625 950
F 0 "#PWR0133" H 8625 700 50  0001 C CNN
F 1 "GND" H 8625 800 50  0000 C CNN
F 2 "" H 8625 950 50  0001 C CNN
F 3 "" H 8625 950 50  0001 C CNN
	1    8625 950 
	1    0    0    1   
$EndComp
$Comp
L Device:C_Small C20
U 1 1 5D349C72
P 9250 1050
F 0 "C20" H 9342 1096 50  0000 L CNN
F 1 "12pf" H 9342 1005 50  0000 L CNN
F 2 "Capacitors_SMD:C_0805_2012Metric" H 9250 1050 50  0001 C CNN
F 3 "~" H 9250 1050 50  0001 C CNN
	1    9250 1050
	1    0    0    1   
$EndComp
$Comp
L power:GND #PWR0134
U 1 1 5D349C79
P 9250 950
F 0 "#PWR0134" H 9250 700 50  0001 C CNN
F 1 "GND" H 9250 800 50  0000 C CNN
F 2 "" H 9250 950 50  0001 C CNN
F 3 "" H 9250 950 50  0001 C CNN
	1    9250 950 
	1    0    0    1   
$EndComp
$Comp
L Device:Crystal Y2
U 1 1 5D349C7F
P 8950 1175
F 0 "Y2" H 8950 1350 50  0000 C CNN
F 1 "16MHz" H 8950 1425 50  0000 C CNN
F 2 "Oscillators:Oscillator_SMD_Abracon_ASE-4Pin_3.2x2.5mm" H 8950 1175 50  0001 C CNN
F 3 "~" H 8950 1175 50  0001 C CNN
	1    8950 1175
	1    0    0    -1  
$EndComp
Wire Wire Line
	9250 1150 9250 1175
Wire Wire Line
	9100 1175 9250 1175
Wire Wire Line
	8625 1175 8625 1150
Wire Wire Line
	8625 1175 8800 1175
Wire Wire Line
	8525 1725 8625 1725
Wire Wire Line
	8625 1725 8625 1175
Connection ~ 8625 1175
Wire Wire Line
	8725 2200 9250 2200
Connection ~ 9250 1900
Connection ~ 9250 2200
Wire Wire Line
	9250 2200 9525 2200
Wire Wire Line
	9250 1900 9425 1900
Wire Wire Line
	9125 1900 9125 2025
Wire Wire Line
	9125 1900 9250 1900
Wire Wire Line
	9250 1175 9250 1375
Wire Wire Line
	9250 1375 8800 1375
Wire Wire Line
	8800 1375 8800 1825
Wire Wire Line
	8800 1825 8525 1825
Connection ~ 9250 1175
$Comp
L power:GND #PWR0135
U 1 1 5D637099
P 9700 1750
F 0 "#PWR0135" H 9700 1500 50  0001 C CNN
F 1 "GND" H 9600 1750 50  0000 C CNN
F 2 "" H 9700 1750 50  0001 C CNN
F 3 "" H 9700 1750 50  0001 C CNN
	1    9700 1750
	-1   0    0    -1  
$EndComp
Wire Wire Line
	8950 1700 9025 1700
Wire Wire Line
	8950 1700 8950 1925
Wire Wire Line
	9700 1700 9700 1750
$Comp
L power:+3.3V #PWR0136
U 1 1 5D72632A
P 9700 1350
F 0 "#PWR0136" H 9700 1200 50  0001 C CNN
F 1 "+3.3V" H 9700 1550 50  0000 C CNN
F 2 "" H 9700 1350 50  0001 C CNN
F 3 "" H 9700 1350 50  0001 C CNN
	1    9700 1350
	1    0    0    -1  
$EndComp
Wire Wire Line
	9700 1700 9700 1625
Connection ~ 9700 1700
Wire Wire Line
	9700 1425 9700 1350
Wire Wire Line
	10025 1900 10300 1900
Wire Wire Line
	8025 2925 8025 3000
Wire Wire Line
	8025 3000 7925 3000
Connection ~ 7925 3000
Wire Wire Line
	7625 3000 7725 3000
$Comp
L cv_pcb1-rescue:TEST TP5
U 1 1 5A9399D3
P 3950 2950
F 0 "TP5" H 3950 3250 50  0000 C BNN
F 1 "TEST" H 3950 3200 50  0000 C CNN
F 2 "Measurement_Points:Measurement_Point_Square-SMD-Pad_Small" H 3950 2950 50  0001 C CNN
F 3 "" H 3950 2950 50  0001 C CNN
	1    3950 2950
	-1   0    0    1   
$EndComp
Wire Wire Line
	3550 2550 3550 2850
Wire Wire Line
	3550 2850 3775 2850
Connection ~ 3550 2850
Wire Wire Line
	3550 2850 3550 2950
Text Label 4075 2750 0    60   ~ 0
RX
Text Label 3775 2850 0    60   ~ 0
TX
NoConn ~ 6925 2325
NoConn ~ 6925 2425
NoConn ~ 6925 2525
NoConn ~ 6925 2625
NoConn ~ 8525 2425
NoConn ~ 8525 1625
Wire Wire Line
	8525 2325 8600 2325
Wire Wire Line
	8600 2325 8600 2975
Wire Wire Line
	8600 2975 8925 2975
Text Label 8925 2975 0    60   ~ 0
NRF_RESET
Wire Wire Line
	10300 1900 10725 1900
Wire Wire Line
	6925 2125 6850 2125
Wire Wire Line
	6925 2225 6850 2225
Connection ~ 1300 1050
Wire Wire Line
	1300 1050 1500 1050
Wire Wire Line
	1500 1700 1500 1050
Connection ~ 1500 1050
Wire Wire Line
	1500 1050 2200 1050
Text Label 1500 1700 3    60   ~ 0
NRF_RESET
Wire Wire Line
	6575 1925 6925 1925
Wire Wire Line
	6525 1825 6925 1825
Wire Wire Line
	3950 2750 4075 2750
$Comp
L cv_pcb1-rescue:MAX17260 U2
U 1 1 5CA241B7
P 6100 5575
F 0 "U2" H 6100 5762 60  0000 C CNN
F 1 "MAX17260" H 6100 5656 60  0000 C CNN
F 2 "Tinkerforge_connectors:TDFN14-3x3" H 6100 5575 60  0001 C CNN
F 3 "" H 6100 5575 60  0001 C CNN
	1    6100 5575
	1    0    0    -1  
$EndComp
$Comp
L Device:C_Small C24
U 1 1 5CA91422
P 6900 5850
F 0 "C24" H 6992 5896 50  0000 L CNN
F 1 "0.47uF" H 6992 5805 50  0000 L CNN
F 2 "Capacitors_SMD:C_0805_2012Metric" H 6900 5850 50  0001 C CNN
F 3 "~" H 6900 5850 50  0001 C CNN
	1    6900 5850
	1    0    0    1   
$EndComp
$Comp
L power:GND #PWR0122
U 1 1 5CB344F6
P 6900 6000
F 0 "#PWR0122" H 6900 5750 50  0001 C CNN
F 1 "GND" H 7050 5925 50  0000 C CNN
F 2 "" H 6900 6000 50  0001 C CNN
F 3 "" H 6900 6000 50  0001 C CNN
	1    6900 6000
	1    0    0    -1  
$EndComp
Wire Wire Line
	6600 5725 6900 5725
Wire Wire Line
	6900 5725 6900 5750
Wire Wire Line
	6900 5950 6900 6000
$Comp
L power:GND #PWR014
U 1 1 5CBFA839
P 6675 5925
F 0 "#PWR014" H 6675 5675 50  0001 C CNN
F 1 "GND" H 6800 5900 50  0000 C CNN
F 2 "" H 6675 5925 50  0001 C CNN
F 3 "" H 6675 5925 50  0001 C CNN
	1    6675 5925
	1    0    0    -1  
$EndComp
Wire Wire Line
	6675 5875 6675 5925
Wire Wire Line
	6675 5875 6600 5875
Wire Wire Line
	6600 6275 6750 6275
Wire Wire Line
	6750 6275 6750 6375
Wire Wire Line
	6600 6125 6750 6125
Wire Wire Line
	6750 6125 6750 6175
$Comp
L Device:R_US R8
U 1 1 5CC86B03
P 6025 7025
F 0 "R8" V 6200 7025 50  0000 C CNN
F 1 "10m" V 6125 7025 50  0000 C CNN
F 2 "Resistors_SMD:R_0805_2012Metric" V 6065 7015 50  0001 C CNN
F 3 "~" H 6025 7025 50  0001 C CNN
	1    6025 7025
	0    1    1    0   
$EndComp
NoConn ~ 6200 6725
Wire Wire Line
	6000 6725 6000 6850
Wire Wire Line
	6350 6850 6350 6725
$Comp
L power:+BATT #PWR08
U 1 1 5CD158CE
P 5150 5875
F 0 "#PWR08" H 5150 5725 50  0001 C CNN
F 1 "+BATT" H 5165 6048 50  0000 C CNN
F 2 "" H 5150 5875 50  0001 C CNN
F 3 "" H 5150 5875 50  0001 C CNN
	1    5150 5875
	1    0    0    -1  
$EndComp
Wire Wire Line
	6350 6850 6200 6850
Wire Wire Line
	6175 7025 6200 7025
Wire Wire Line
	6200 7025 6200 6850
Connection ~ 6200 6850
Wire Wire Line
	6200 6850 6000 6850
Wire Wire Line
	5850 6725 5850 7025
$Comp
L Device:Thermistor_NTC TH1
U 1 1 5CEBAFFD
P 5400 6275
F 0 "TH1" V 5625 6175 50  0000 L CNN
F 1 "Thermistor_NTC" V 5525 5900 50  0000 L CNN
F 2 "Resistors_SMD:R_0805_2012Metric" H 5400 6325 50  0001 C CNN
F 3 "~" H 5400 6325 50  0001 C CNN
	1    5400 6275
	1    0    0    -1  
$EndComp
Wire Wire Line
	5600 5875 5400 5875
Wire Wire Line
	5400 5875 5400 6125
$Comp
L power:GND #PWR011
U 1 1 5CF72699
P 5850 7075
F 0 "#PWR011" H 5850 6825 50  0001 C CNN
F 1 "GND" H 5725 7075 50  0000 C CNN
F 2 "" H 5850 7075 50  0001 C CNN
F 3 "" H 5850 7075 50  0001 C CNN
	1    5850 7075
	1    0    0    -1  
$EndComp
Wire Wire Line
	5850 7025 5850 7075
$Comp
L Device:C_Small C3
U 1 1 5CFB0787
P 5150 6225
F 0 "C3" H 4975 6275 50  0000 L CNN
F 1 "0.1uF" H 4875 6175 50  0000 L CNN
F 2 "Capacitors_SMD:C_0805_2012Metric" H 5150 6225 50  0001 C CNN
F 3 "~" H 5150 6225 50  0001 C CNN
	1    5150 6225
	1    0    0    1   
$EndComp
$Comp
L power:GND #PWR09
U 1 1 5CFB078E
P 5150 6375
F 0 "#PWR09" H 5150 6125 50  0001 C CNN
F 1 "GND" H 5000 6325 50  0000 C CNN
F 2 "" H 5150 6375 50  0001 C CNN
F 3 "" H 5150 6375 50  0001 C CNN
	1    5150 6375
	1    0    0    -1  
$EndComp
Wire Wire Line
	5150 6325 5150 6375
Connection ~ 5150 6025
$Comp
L power:GND #PWR010
U 1 1 5CFEF1DF
P 5400 6475
F 0 "#PWR010" H 5400 6225 50  0001 C CNN
F 1 "GND" H 5250 6400 50  0000 C CNN
F 2 "" H 5400 6475 50  0001 C CNN
F 3 "" H 5400 6475 50  0001 C CNN
	1    5400 6475
	1    0    0    -1  
$EndComp
Wire Wire Line
	5400 6425 5400 6475
$Comp
L power:GND #PWR0113
U 1 1 5C972561
P 1750 7250
F 0 "#PWR0113" H 1750 7000 50  0001 C CNN
F 1 "GND" H 1750 7100 50  0000 C CNN
F 2 "" H 1750 7250 50  0001 C CNN
F 3 "" H 1750 7250 50  0001 C CNN
	1    1750 7250
	1    0    0    -1  
$EndComp
Wire Wire Line
	4275 6025 5150 6025
Wire Wire Line
	5150 6025 5600 6025
Wire Wire Line
	5875 7025 5850 7025
Connection ~ 5850 7025
$Comp
L power:-BATT #PWR013
U 1 1 5D1F3310
P 6200 7100
F 0 "#PWR013" H 6200 6950 50  0001 C CNN
F 1 "-BATT" H 6215 7273 50  0000 C CNN
F 2 "" H 6200 7100 50  0001 C CNN
F 3 "" H 6200 7100 50  0001 C CNN
	1    6200 7100
	-1   0    0    1   
$EndComp
$Comp
L power:-BATT #PWR07
U 1 1 5D1F34A1
P 4575 6125
F 0 "#PWR07" H 4575 5975 50  0001 C CNN
F 1 "-BATT" V 4700 6125 50  0000 C CNN
F 2 "" H 4575 6125 50  0001 C CNN
F 3 "" H 4575 6125 50  0001 C CNN
	1    4575 6125
	0    1    1    0   
$EndComp
Wire Wire Line
	4275 6125 4575 6125
Wire Wire Line
	6200 7100 6200 7025
Connection ~ 6200 7025
NoConn ~ 6850 5300
Wire Wire Line
	5150 5875 5150 6025
Wire Wire Line
	5150 6025 5150 6125
NoConn ~ 7500 6425
Text GLabel 10900 4450 2    60   BiDi ~ 0
SCL
Text GLabel 10900 4650 2    60   BiDi ~ 0
SDA
Wire Wire Line
	10500 4450 10900 4450
Wire Wire Line
	10500 4650 10900 4650
NoConn ~ 11250 4700
$Comp
L MCU_Microchip_ATmega:ATmega32U4-AU U7
U 1 1 5D33F318
P 2800 2550
F 0 "U7" H 3200 700 50  0000 C CNN
F 1 "ATmega32U4-AU" H 3200 800 50  0000 C CNN
F 2 "Housings_QFP:TQFP-44_10x10mm_P0.8mm" H 2800 2550 50  0001 C CIN
F 3 "http://ww1.microchip.com/downloads/en/DeviceDoc/Atmel-7766-8-bit-AVR-ATmega16U4-32U4_Datasheet.pdf" H 2800 2550 50  0001 C CNN
	1    2800 2550
	1    0    0    -1  
$EndComp
Text Label 3400 1450 0    60   ~ 0
ACTIVE
Connection ~ 10300 1900
$Comp
L cv_pcb1-rescue:Antenna A1
U 1 1 5D460AD1
P 10775 1750
F 0 "A1" H 10586 1847 60  0000 C CNN
F 1 "Antenna" H 10586 1741 60  0000 C CNN
F 2 "jacobs_footprints:Antenna" H 10775 1750 60  0001 C CNN
F 3 "" H 10775 1750 60  0001 C CNN
	1    10775 1750
	-1   0    0    -1  
$EndComp
$Comp
L Device:R_US R9
U 1 1 5D492D3D
P 1525 2675
F 0 "R9" V 1675 2675 50  0000 C CNN
F 1 "22" V 1600 2675 50  0000 C CNN
F 2 "Resistors_SMD:R_0805_2012Metric" V 1565 2665 50  0001 C CNN
F 3 "~" H 1525 2675 50  0001 C CNN
	1    1525 2675
	-1   0    0    1   
$EndComp
$Comp
L Device:R_US R10
U 1 1 5D4C39B5
P 1675 2675
F 0 "R10" V 1725 2675 50  0000 C CNN
F 1 "22" V 1600 2675 50  0000 C CNN
F 2 "Resistors_SMD:R_0805_2012Metric" V 1715 2665 50  0001 C CNN
F 3 "~" H 1675 2675 50  0001 C CNN
	1    1675 2675
	-1   0    0    1   
$EndComp
Wire Wire Line
	1675 2825 1675 3350
Wire Wire Line
	1675 3350 1250 3350
Wire Wire Line
	1675 2525 1675 2150
Wire Wire Line
	1675 2150 2200 2150
Wire Wire Line
	1525 2050 1525 2525
Wire Wire Line
	1525 2050 2200 2050
Wire Wire Line
	1525 2825 1525 3250
Wire Wire Line
	6850 4200 7600 4200
Wire Wire Line
	6850 4500 7800 4500
Wire Wire Line
	6850 4350 7650 4350
Wire Wire Line
	7650 3800 7650 4350
$EndSCHEMATC
