M48
;DRILL file {KiCad 4.0.7} date 05/30/18 20:00:58
;FORMAT={-:-/ absolute / inch / decimal}
FMAT,2
INCH,TZ
T1C0.035
T2C0.043
%
G90
G05
M72
T1
X5.189Y-3.4783
X5.3622Y-3.4783
T2
X5.8957Y-3.535
X5.9957Y-3.535
X6.0957Y-3.535
T0
M30
