G04 #@! TF.FileFunction,Copper,L1,Top,Signal*
%FSLAX46Y46*%
G04 Gerber Fmt 4.6, Leading zero omitted, Abs format (unit mm)*
G04 Created by KiCad (PCBNEW 4.0.7) date 05/30/18 20:00:42*
%MOMM*%
%LPD*%
G01*
G04 APERTURE LIST*
%ADD10C,0.100000*%
%ADD11C,3.000000*%
%ADD12R,3.000000X3.000000*%
%ADD13R,1.250000X1.000000*%
%ADD14O,1.998980X1.998980*%
%ADD15R,1.998980X1.998980*%
%ADD16R,1.200000X1.200000*%
%ADD17R,0.900000X0.500000*%
%ADD18R,0.500000X0.900000*%
%ADD19R,1.000000X1.000000*%
%ADD20R,1.500000X1.500000*%
%ADD21R,0.700000X0.700000*%
%ADD22O,0.698500X0.299720*%
%ADD23O,0.299720X0.698500*%
%ADD24R,1.000000X0.900000*%
%ADD25R,0.600000X0.250000*%
%ADD26R,0.650000X1.060000*%
%ADD27R,0.800000X0.900000*%
%ADD28R,0.500000X2.300000*%
%ADD29R,2.000000X2.500000*%
%ADD30C,1.500000*%
%ADD31C,1.000000*%
%ADD32C,0.620000*%
%ADD33C,0.250000*%
G04 APERTURE END LIST*
D10*
D11*
X142750000Y-106740000D03*
D12*
X142750000Y-86250000D03*
D13*
X146400000Y-85850000D03*
X146400000Y-87850000D03*
D14*
X154830000Y-87250000D03*
D15*
X149750000Y-87250000D03*
D14*
X152290000Y-87250000D03*
D16*
X129550000Y-93500000D03*
X129550000Y-95700000D03*
D17*
X129600000Y-97550000D03*
X129600000Y-99050000D03*
D18*
X148650000Y-95650000D03*
X150150000Y-95650000D03*
X148700000Y-92500000D03*
X150200000Y-92500000D03*
D19*
X147200000Y-83950000D03*
X145400000Y-83950000D03*
D20*
X148550000Y-98550000D03*
X151050000Y-98550000D03*
D21*
X156750000Y-93750000D03*
X156750000Y-95000000D03*
D19*
X156600000Y-97750000D03*
D21*
X137600000Y-97300000D03*
D22*
X139825140Y-93400640D03*
X139825140Y-93901020D03*
X139825140Y-94401400D03*
X139825140Y-94901780D03*
X139825140Y-95402160D03*
X139825140Y-95900000D03*
X139825140Y-96397840D03*
X139825140Y-96898220D03*
X139825140Y-97398600D03*
X139825140Y-97898980D03*
X139825140Y-98399360D03*
D23*
X140650640Y-99224860D03*
X141151020Y-99224860D03*
X141651400Y-99224860D03*
X142151780Y-99224860D03*
X142652160Y-99224860D03*
X143150000Y-99224860D03*
X143647840Y-99224860D03*
X144148220Y-99224860D03*
X144648600Y-99224860D03*
X145148980Y-99224860D03*
X145649360Y-99224860D03*
D22*
X146474860Y-98399360D03*
X146474860Y-97898980D03*
X146474860Y-97398600D03*
X146474860Y-96898220D03*
X146474860Y-96397840D03*
X146474860Y-95900000D03*
X146474860Y-95402160D03*
X146474860Y-94901780D03*
X146474860Y-94401400D03*
X146474860Y-93901020D03*
X146474860Y-93400640D03*
D23*
X145649360Y-92575140D03*
X145148980Y-92575140D03*
X144648600Y-92575140D03*
X144148220Y-92575140D03*
X143647840Y-92575140D03*
X143150000Y-92575140D03*
X142652160Y-92575140D03*
X142151780Y-92575140D03*
X141651400Y-92575140D03*
X141151020Y-92575140D03*
X140650640Y-92575140D03*
D24*
X131540000Y-113500000D03*
X133040000Y-113500000D03*
X134540000Y-113500000D03*
X136040000Y-113500000D03*
X137540000Y-113500000D03*
X139040000Y-113500000D03*
X140540000Y-113500000D03*
X142040000Y-113500000D03*
X143540000Y-113500000D03*
X145040000Y-113500000D03*
X146540000Y-113500000D03*
X148040000Y-113500000D03*
X149540000Y-113500000D03*
X131540000Y-101300000D03*
X133040000Y-101300000D03*
X134540000Y-101300000D03*
X136040000Y-101300000D03*
X137540000Y-101300000D03*
X139040000Y-101300000D03*
X140540000Y-101300000D03*
X142040000Y-101300000D03*
X143540000Y-101300000D03*
X145040000Y-101300000D03*
X146540000Y-101300000D03*
X148040000Y-101300000D03*
X149540000Y-101300000D03*
X130150000Y-102100000D03*
X130150000Y-103600000D03*
X130150000Y-105100000D03*
X130150000Y-106600000D03*
X130150000Y-108100000D03*
X130150000Y-109600000D03*
X130150000Y-111100000D03*
X130150000Y-112600000D03*
D25*
X155400000Y-93450000D03*
X155400000Y-91950000D03*
X155400000Y-92450000D03*
X155400000Y-92950000D03*
X155400000Y-93950000D03*
X155400000Y-94450000D03*
X155400000Y-94950000D03*
X151600000Y-91950000D03*
X151600000Y-92450000D03*
X151600000Y-92950000D03*
X151600000Y-93450000D03*
X151600000Y-93950000D03*
X151600000Y-94950000D03*
X151600000Y-94450000D03*
D26*
X154950000Y-96700000D03*
X154000000Y-96700000D03*
X153050000Y-96700000D03*
X153050000Y-98900000D03*
X154950000Y-98900000D03*
X154000000Y-98900000D03*
D27*
X141800000Y-90950000D03*
X143700000Y-90950000D03*
X142750000Y-88950000D03*
D28*
X135600000Y-90950000D03*
X134800000Y-90950000D03*
X134000000Y-90950000D03*
X133200000Y-90950000D03*
X132400000Y-90950000D03*
D29*
X138450000Y-90850000D03*
X138450000Y-85350000D03*
X129550000Y-90850000D03*
X129550000Y-85350000D03*
D16*
X133100000Y-99450000D03*
X135300000Y-99450000D03*
D18*
X136750000Y-93650000D03*
X138250000Y-93650000D03*
X136750000Y-95600000D03*
X138250000Y-95600000D03*
X136800000Y-99400000D03*
X138300000Y-99400000D03*
D20*
X132100000Y-97000000D03*
D30*
X134700000Y-94650000D03*
D20*
X134650000Y-97000000D03*
D30*
X132100000Y-94650000D03*
D31*
X129650000Y-100400000D03*
D32*
X147950000Y-85275000D03*
X145000000Y-90550000D03*
X145350000Y-93825000D03*
X138725000Y-97925000D03*
X133525000Y-102875000D03*
X140000000Y-100050000D03*
X147825000Y-97000000D03*
X148625000Y-94275000D03*
X153600000Y-94175000D03*
X156175000Y-99200000D03*
X142225000Y-100200000D03*
X139300000Y-99375000D03*
X145150000Y-97875000D03*
X140825000Y-90950000D03*
X154000000Y-95400000D03*
X150750000Y-91225000D03*
X146950000Y-89150000D03*
X145525000Y-91400000D03*
X148900000Y-84525000D03*
X131325000Y-89775000D03*
X130800000Y-99525000D03*
X132125000Y-102675000D03*
X131400000Y-111900000D03*
X140725000Y-95600000D03*
X140875000Y-88850000D03*
X144150000Y-98200000D03*
X151050000Y-96000000D03*
X143650000Y-99900000D03*
X144975000Y-85200000D03*
X143050000Y-98025000D03*
X137600000Y-98375000D03*
X136375000Y-103175000D03*
X137925000Y-87375000D03*
X134525000Y-110700000D03*
X131775000Y-99700000D03*
X141650000Y-93650000D03*
X141775000Y-94525000D03*
X142925000Y-94300000D03*
X143000000Y-95200000D03*
X143925000Y-95200000D03*
X144825000Y-95225000D03*
X133050000Y-111200000D03*
D33*
X143700000Y-90950000D02*
X143575000Y-90950000D01*
X143575000Y-90950000D02*
X142575000Y-89950000D01*
X140150000Y-92074500D02*
X140650640Y-92575140D01*
X140150000Y-90550000D02*
X140150000Y-92074500D01*
X140750000Y-89950000D02*
X140150000Y-90550000D01*
X142575000Y-89950000D02*
X140750000Y-89950000D01*
X146400000Y-85850000D02*
X147375000Y-85850000D01*
X147375000Y-85850000D02*
X147950000Y-85275000D01*
X143700000Y-90950000D02*
X144600000Y-90950000D01*
X144600000Y-90950000D02*
X145000000Y-90550000D01*
X145649360Y-92575140D02*
X145649360Y-93525640D01*
X145649360Y-93525640D02*
X145350000Y-93825000D01*
X139825140Y-95900000D02*
X139375000Y-95900000D01*
X138725000Y-96550000D02*
X138725000Y-97925000D01*
X139375000Y-95900000D02*
X138725000Y-96550000D01*
X133040000Y-101300000D02*
X133040000Y-102390000D01*
X133040000Y-102390000D02*
X133525000Y-102875000D01*
X141651400Y-99224860D02*
X141651400Y-99773600D01*
X141375000Y-100050000D02*
X140000000Y-100050000D01*
X141651400Y-99773600D02*
X141375000Y-100050000D01*
X146474860Y-97898980D02*
X146926020Y-97898980D01*
X146926020Y-97898980D02*
X147825000Y-97000000D01*
X148700000Y-92500000D02*
X148700000Y-94200000D01*
X148650000Y-94300000D02*
X148625000Y-94275000D01*
X148650000Y-94300000D02*
X148650000Y-95650000D01*
X148700000Y-94200000D02*
X148625000Y-94275000D01*
X154000000Y-98900000D02*
X154000000Y-99725000D01*
X155450000Y-99925000D02*
X156175000Y-99200000D01*
X154200000Y-99925000D02*
X155450000Y-99925000D01*
X154000000Y-99725000D02*
X154200000Y-99925000D01*
X129550000Y-93500000D02*
X130950000Y-93500000D01*
X130950000Y-93500000D02*
X132100000Y-94650000D01*
X155400000Y-93450000D02*
X154325000Y-93450000D01*
X153325000Y-94450000D02*
X151600000Y-94450000D01*
X154325000Y-93450000D02*
X153600000Y-94175000D01*
X153600000Y-94175000D02*
X153325000Y-94450000D01*
X143625000Y-90950000D02*
X143700000Y-90950000D01*
X142151780Y-99224860D02*
X142151780Y-100126780D01*
X142151780Y-100126780D02*
X142225000Y-100200000D01*
X138300000Y-99400000D02*
X139275000Y-99400000D01*
X139275000Y-99400000D02*
X139300000Y-99375000D01*
X146474860Y-98399360D02*
X145674360Y-98399360D01*
X145674360Y-98399360D02*
X145150000Y-97875000D01*
X141800000Y-90950000D02*
X140825000Y-90950000D01*
X151600000Y-94950000D02*
X151600000Y-95250000D01*
X154000000Y-95400000D02*
X154000000Y-96700000D01*
X151750000Y-95400000D02*
X154000000Y-95400000D01*
X151600000Y-95250000D02*
X151750000Y-95400000D01*
X151600000Y-91950000D02*
X151475000Y-91950000D01*
X151475000Y-91950000D02*
X150750000Y-91225000D01*
X146400000Y-87850000D02*
X146400000Y-88600000D01*
X146400000Y-88600000D02*
X146950000Y-89150000D01*
X145148980Y-92575140D02*
X145148980Y-91776020D01*
X145148980Y-91776020D02*
X145525000Y-91400000D01*
X147200000Y-83950000D02*
X148325000Y-83950000D01*
X148325000Y-83950000D02*
X148900000Y-84525000D01*
X132400000Y-90950000D02*
X132400000Y-90850000D01*
X132400000Y-90850000D02*
X131325000Y-89775000D01*
X129600000Y-99050000D02*
X130325000Y-99050000D01*
X130325000Y-99050000D02*
X130800000Y-99525000D01*
X131540000Y-101300000D02*
X131540000Y-102090000D01*
X131540000Y-102090000D02*
X132125000Y-102675000D01*
X130150000Y-112600000D02*
X130700000Y-112600000D01*
X130700000Y-112600000D02*
X131400000Y-111900000D01*
X130150000Y-112600000D02*
X130150000Y-113150000D01*
X130500000Y-113500000D02*
X131540000Y-113500000D01*
X130150000Y-113150000D02*
X130500000Y-113500000D01*
X130150000Y-102100000D02*
X130740000Y-102100000D01*
X130740000Y-102100000D02*
X131540000Y-101300000D01*
X154000000Y-96700000D02*
X154000000Y-97325000D01*
X154950000Y-98275000D02*
X154950000Y-98900000D01*
X154000000Y-97325000D02*
X154950000Y-98275000D01*
X151600000Y-91950000D02*
X151600000Y-92450000D01*
X139825140Y-95402160D02*
X140527160Y-95402160D01*
X140527160Y-95402160D02*
X140725000Y-95600000D01*
X141151020Y-92575140D02*
X141151020Y-91598980D01*
X141151020Y-91598980D02*
X141800000Y-90950000D01*
X142750000Y-88950000D02*
X142750000Y-86250000D01*
X140975000Y-88950000D02*
X142750000Y-88950000D01*
X140875000Y-88850000D02*
X140975000Y-88950000D01*
X154830000Y-87250000D02*
X154830000Y-88180000D01*
X154830000Y-88180000D02*
X156700000Y-90050000D01*
X156200000Y-92950000D02*
X155400000Y-92950000D01*
X156700000Y-92450000D02*
X156200000Y-92950000D01*
X156700000Y-90050000D02*
X156700000Y-92450000D01*
X154830000Y-87250000D02*
X154830000Y-88030000D01*
X149750000Y-87250000D02*
X149750000Y-87900000D01*
X149750000Y-87900000D02*
X151100000Y-89250000D01*
X151100000Y-89250000D02*
X151100000Y-90100000D01*
X151100000Y-90100000D02*
X152950000Y-91950000D01*
X152950000Y-91950000D02*
X155400000Y-91950000D01*
X152290000Y-87250000D02*
X152290000Y-88090000D01*
X152290000Y-88090000D02*
X153550000Y-89350000D01*
X155950000Y-92450000D02*
X155400000Y-92450000D01*
X156150000Y-92250000D02*
X155950000Y-92450000D01*
X156150000Y-91450000D02*
X156150000Y-92250000D01*
X155850000Y-91150000D02*
X156150000Y-91450000D01*
X153950000Y-91150000D02*
X155850000Y-91150000D01*
X153550000Y-90750000D02*
X153950000Y-91150000D01*
X153550000Y-89350000D02*
X153550000Y-90750000D01*
X152290000Y-87250000D02*
X152290000Y-87840000D01*
X129600000Y-97550000D02*
X129600000Y-95750000D01*
X129600000Y-95750000D02*
X129550000Y-95700000D01*
X144148220Y-99224860D02*
X144148220Y-98201780D01*
X144148220Y-98201780D02*
X144150000Y-98200000D01*
X150150000Y-95650000D02*
X150150000Y-94200000D01*
X150900000Y-93450000D02*
X151600000Y-93450000D01*
X150150000Y-94200000D02*
X150900000Y-93450000D01*
X150700000Y-95650000D02*
X150150000Y-95650000D01*
X151050000Y-96000000D02*
X150700000Y-95650000D01*
X153050000Y-98900000D02*
X151400000Y-98900000D01*
X151400000Y-98900000D02*
X151050000Y-98550000D01*
X150200000Y-92500000D02*
X150250000Y-92500000D01*
X150250000Y-92500000D02*
X150700000Y-92950000D01*
X150700000Y-92950000D02*
X151600000Y-92950000D01*
X143647840Y-99224860D02*
X143647840Y-99897840D01*
X143647840Y-99897840D02*
X143650000Y-99900000D01*
X150200000Y-92500000D02*
X150200000Y-93450000D01*
X149400000Y-97700000D02*
X148550000Y-98550000D01*
X149400000Y-94250000D02*
X149400000Y-97700000D01*
X150200000Y-93450000D02*
X149400000Y-94250000D01*
X153050000Y-96700000D02*
X150400000Y-96700000D01*
X150400000Y-96700000D02*
X148550000Y-98550000D01*
X145148980Y-99224860D02*
X145148980Y-99798980D01*
X148190000Y-99950000D02*
X149540000Y-101300000D01*
X145300000Y-99950000D02*
X148190000Y-99950000D01*
X145148980Y-99798980D02*
X145300000Y-99950000D01*
X144648600Y-99224860D02*
X144648600Y-100148600D01*
X147240000Y-100500000D02*
X148040000Y-101300000D01*
X145000000Y-100500000D02*
X147240000Y-100500000D01*
X144648600Y-100148600D02*
X145000000Y-100500000D01*
X141151020Y-99224860D02*
X141151020Y-98548980D01*
X145400000Y-84775000D02*
X145400000Y-83950000D01*
X144975000Y-85200000D02*
X145400000Y-84775000D01*
X141675000Y-98025000D02*
X143050000Y-98025000D01*
X141151020Y-98548980D02*
X141675000Y-98025000D01*
X155400000Y-93950000D02*
X156550000Y-93950000D01*
X156550000Y-93950000D02*
X156750000Y-93750000D01*
X155400000Y-94450000D02*
X156200000Y-94450000D01*
X156200000Y-94450000D02*
X156750000Y-95000000D01*
X154950000Y-96700000D02*
X154950000Y-95400000D01*
X154950000Y-95400000D02*
X155400000Y-94950000D01*
X154950000Y-96700000D02*
X155550000Y-96700000D01*
X155550000Y-96700000D02*
X156600000Y-97750000D01*
X134540000Y-101300000D02*
X134540000Y-102615000D01*
X137600000Y-98375000D02*
X137600000Y-97300000D01*
X135100000Y-103175000D02*
X136375000Y-103175000D01*
X134540000Y-102615000D02*
X135100000Y-103175000D01*
X134200000Y-100960000D02*
X134540000Y-101300000D01*
X139825140Y-93901020D02*
X140301020Y-93901020D01*
X140301020Y-93901020D02*
X141075000Y-94675000D01*
X141075000Y-94675000D02*
X141075000Y-94925000D01*
X141075000Y-94925000D02*
X141425000Y-95275000D01*
X141425000Y-95275000D02*
X141425000Y-95950000D01*
X141425000Y-95950000D02*
X140977160Y-96397840D01*
X140977160Y-96397840D02*
X139825140Y-96397840D01*
X135600000Y-89475000D02*
X135600000Y-90950000D01*
X135275000Y-89150000D02*
X135600000Y-89475000D01*
X135275000Y-87900000D02*
X135275000Y-89150000D01*
X135800000Y-87375000D02*
X135275000Y-87900000D01*
X136775000Y-87375000D02*
X135800000Y-87375000D01*
X137100000Y-87050000D02*
X136775000Y-87375000D01*
X137600000Y-87050000D02*
X137100000Y-87050000D01*
X137925000Y-87375000D02*
X137600000Y-87050000D01*
X135600000Y-90950000D02*
X135600000Y-90475000D01*
X135600000Y-90950000D02*
X135600000Y-91700000D01*
X135600000Y-91700000D02*
X136450000Y-92550000D01*
X136450000Y-92550000D02*
X138600000Y-92550000D01*
X138600000Y-92550000D02*
X139050000Y-93000000D01*
X139050000Y-93000000D02*
X139050000Y-93750000D01*
X139050000Y-93750000D02*
X139201020Y-93901020D01*
X139201020Y-93901020D02*
X139825140Y-93901020D01*
X134800000Y-90950000D02*
X134800000Y-92300000D01*
X136150000Y-93650000D02*
X136750000Y-93650000D01*
X134800000Y-92300000D02*
X136150000Y-93650000D01*
X136750000Y-95600000D02*
X136750000Y-95050000D01*
X134100000Y-92400000D02*
X134100000Y-91050000D01*
X134450000Y-92750000D02*
X134100000Y-92400000D01*
X136750000Y-95050000D02*
X134450000Y-92750000D01*
X134100000Y-91050000D02*
X134000000Y-90950000D01*
X129550000Y-85350000D02*
X129550000Y-90850000D01*
X138450000Y-85350000D02*
X138450000Y-84925000D01*
X138450000Y-84925000D02*
X137150000Y-83625000D01*
X137150000Y-83625000D02*
X131275000Y-83625000D01*
X131275000Y-83625000D02*
X129550000Y-85350000D01*
X138450000Y-90850000D02*
X138450000Y-87825000D01*
X138450000Y-87825000D02*
X138925000Y-87350000D01*
X138925000Y-87350000D02*
X138925000Y-85825000D01*
X138925000Y-85825000D02*
X138450000Y-85350000D01*
X133100000Y-99450000D02*
X132025000Y-99450000D01*
X134540000Y-110715000D02*
X134540000Y-113500000D01*
X134525000Y-110700000D02*
X134540000Y-110715000D01*
X132025000Y-99450000D02*
X131775000Y-99700000D01*
X135300000Y-99450000D02*
X136750000Y-99450000D01*
X136750000Y-99450000D02*
X136800000Y-99400000D01*
X138250000Y-93650000D02*
X139000000Y-94400000D01*
X139000000Y-94400000D02*
X139823740Y-94400000D01*
X139823740Y-94400000D02*
X139825140Y-94401400D01*
X139825140Y-94901780D02*
X138948220Y-94901780D01*
X138948220Y-94901780D02*
X138250000Y-95600000D01*
X142151780Y-93148220D02*
X141650000Y-93650000D01*
X142151780Y-92575140D02*
X142151780Y-93148220D01*
X142652160Y-92575140D02*
X142652160Y-93647840D01*
X142652160Y-93647840D02*
X141775000Y-94525000D01*
X143150000Y-94075000D02*
X142925000Y-94300000D01*
X143150000Y-92575140D02*
X143150000Y-94075000D01*
X143150000Y-94075000D02*
X143150000Y-94100000D01*
X143647840Y-94552160D02*
X143000000Y-95200000D01*
X143647840Y-92575140D02*
X143647840Y-94552160D01*
X144148220Y-92575140D02*
X144148220Y-94976780D01*
X144148220Y-94976780D02*
X143925000Y-95200000D01*
X144648600Y-95048600D02*
X144825000Y-95225000D01*
X144648600Y-95048600D02*
X144648600Y-92575140D01*
X133040000Y-111210000D02*
X133040000Y-113500000D01*
X133050000Y-111200000D02*
X133040000Y-111210000D01*
M02*
