G04 #@! TF.FileFunction,Soldermask,Bot*
%FSLAX46Y46*%
G04 Gerber Fmt 4.6, Leading zero omitted, Abs format (unit mm)*
G04 Created by KiCad (PCBNEW 4.0.7) date 05/30/18 19:59:50*
%MOMM*%
%LPD*%
G01*
G04 APERTURE LIST*
%ADD10C,0.100000*%
%ADD11C,3.400000*%
%ADD12R,3.400000X3.400000*%
%ADD13O,2.398980X2.398980*%
%ADD14R,2.398980X2.398980*%
%ADD15C,1.500000*%
%ADD16R,1.900000X1.900000*%
%ADD17C,1.300000*%
%ADD18C,1.900000*%
%ADD19R,1.100000X1.100000*%
%ADD20R,1.400000X1.400000*%
%ADD21C,1.400000*%
G04 APERTURE END LIST*
D10*
D11*
X142750000Y-106740000D03*
D12*
X142750000Y-86250000D03*
D13*
X154830000Y-87250000D03*
D14*
X149750000Y-87250000D03*
D13*
X152290000Y-87250000D03*
D15*
X149750000Y-89790000D03*
X152290000Y-89790000D03*
X154830000Y-89790000D03*
D16*
X148550000Y-98550000D03*
X151050000Y-98550000D03*
D17*
X136200000Y-88350000D03*
X131800000Y-88350000D03*
D16*
X132100000Y-97000000D03*
D18*
X134700000Y-94650000D03*
D16*
X134650000Y-97000000D03*
D19*
X139100000Y-88350000D03*
D18*
X132100000Y-94650000D03*
D20*
X136400000Y-84800000D03*
X135825000Y-86575000D03*
X134400000Y-84800000D03*
X133725000Y-86575000D03*
X132375000Y-84800000D03*
X131650000Y-86575000D03*
D21*
X129650000Y-100400000D03*
D19*
X137950000Y-88350000D03*
M02*
