(module Antenna (layer F.Cu) (tedit 5CA2DBB8)
  (fp_text reference REF** (at 0.17 0.74) (layer F.SilkS)
    (effects (font (size 1 1) (thickness 0.15)))
  )
  (fp_text value Antenna (at 0 -0.5) (layer F.Fab)
    (effects (font (size 1 1) (thickness 0.15)))
  )
  (pad 1 smd rect (at 0 2.23) (size 14.1106 1.524) (drill oval (offset 1 0)) (layers F.Cu F.Paste F.Mask))
)
