(module NC7SV14 (layer F.Cu) (tedit 5B87655E)
  (fp_text reference REF** (at 0 2) (layer F.SilkS)
    (effects (font (size 1 1) (thickness 0.15)))
  )
  (fp_text value NC7SV14 (at 0 -2) (layer F.Fab)
    (effects (font (size 1 1) (thickness 0.15)))
  )
  (fp_line (start -0.75 -0.1) (end -0.75 0.55) (layer F.SilkS) (width 0.15))
  (fp_line (start -0.75 -0.1) (end -0.75 -0.6) (layer F.SilkS) (width 0.15))
  (pad 6 smd rect (at -0.5 -0.4) (size 0.3 0.5) (layers F.Cu F.Paste F.Mask))
  (pad 5 smd rect (at 0 -0.4) (size 0.3 0.5) (layers F.Cu F.Paste F.Mask))
  (pad 4 smd rect (at 0.5 -0.4) (size 0.3 0.5) (layers F.Cu F.Paste F.Mask))
  (pad 1 smd rect (at -0.5 0.35) (size 0.3 0.5) (layers F.Cu F.Paste F.Mask))
  (pad 2 smd rect (at 0 0.35) (size 0.3 0.5) (layers F.Cu F.Paste F.Mask))
  (pad 3 smd rect (at 0.5 0.35) (size 0.3 0.5) (layers F.Cu F.Paste F.Mask))
)
