G04 #@! TF.FileFunction,Profile,NP*
%FSLAX46Y46*%
G04 Gerber Fmt 4.6, Leading zero omitted, Abs format (unit mm)*
G04 Created by KiCad (PCBNEW 4.0.7) date 04/15/18 21:01:42*
%MOMM*%
%LPD*%
G01*
G04 APERTURE LIST*
%ADD10C,0.100000*%
%ADD11C,0.150000*%
G04 APERTURE END LIST*
D10*
D11*
X148290000Y-50800000D02*
X127000000Y-50800000D01*
X148290000Y-63500000D02*
X148290000Y-50800000D01*
X149680000Y-63500000D02*
X148290000Y-63500000D01*
X181864000Y-63500000D02*
X149682200Y-63500000D01*
X181864000Y-50800000D02*
X181864000Y-63500000D01*
X203200000Y-50800000D02*
X181864000Y-50800000D01*
X203200000Y-88900000D02*
X203200000Y-50800000D01*
X127000000Y-88900000D02*
X203200000Y-88900000D01*
X127000000Y-50800000D02*
X127000000Y-88900000D01*
M02*
