EESchema Schematic File Version 2
LIBS:power
LIBS:device
LIBS:switches
LIBS:relays
LIBS:motors
LIBS:transistors
LIBS:conn
LIBS:linear
LIBS:regul
LIBS:74xx
LIBS:cmos4000
LIBS:adc-dac
LIBS:memory
LIBS:xilinx
LIBS:microcontrollers
LIBS:dsp
LIBS:microchip
LIBS:analog_switches
LIBS:motorola
LIBS:texas
LIBS:intel
LIBS:audio
LIBS:interface
LIBS:digital-audio
LIBS:philips
LIBS:display
LIBS:cypress
LIBS:siliconi
LIBS:opto
LIBS:atmel
LIBS:contrib
LIBS:valves
LIBS:jacob_parts
LIBS:cv_pcb1-cache
EELAYER 25 0
EELAYER END
$Descr A4 11693 8268
encoding utf-8
Sheet 1 1
Title ""
Date ""
Rev ""
Comp ""
Comment1 ""
Comment2 ""
Comment3 ""
Comment4 ""
$EndDescr
$Comp
L ATmega32U4 U1
U 1 1 5A8E0B3A
P 2950 2950
F 0 "U1" H 2050 4650 50  0000 C CNN
F 1 "ATmega32U4" H 2300 1400 50  0000 C CNN
F 2 "SMD_Packages:MLF-44_Atmel" H 4150 4050 50  0001 C CNN
F 3 "" H 4150 4050 50  0001 C CNN
	1    2950 2950
	1    0    0    -1  
$EndComp
$Comp
L ADS1110 U4
U 1 1 5A8E0D4B
P 9650 5350
F 0 "U4" H 9350 5700 50  0000 L CNN
F 1 "ADS1110" H 9700 5700 50  0000 L CNN
F 2 "TO_SOT_Packages_SMD:SOT-23-6" H 10100 5700 50  0001 L CNN
F 3 "" H 9350 5700 50  0001 C CNN
	1    9650 5350
	1    0    0    -1  
$EndComp
$Comp
L HM_10 U2
U 1 1 5A91EE8D
P 7000 2450
F 0 "U2" H 7000 2250 60  0000 C CNN
F 1 "HM_10" H 7000 2600 60  0000 C CNN
F 2 "jacobs_footprints:HM_10_footprint" H 7000 2600 60  0001 C CNN
F 3 "" H 7000 2600 60  0001 C CNN
	1    7000 2450
	1    0    0    -1  
$EndComp
$Comp
L 103_C J1
U 1 1 5A920627
P 2400 6700
F 0 "J1" H 2400 7150 60  0000 C CNN
F 1 "103_C" H 2400 6700 60  0000 C CNN
F 2 "Battery_Holders:Keystone_103_1x20mm-CoinCell" H 2400 6700 60  0001 C CNN
F 3 "" H 2400 6700 60  0001 C CNN
	1    2400 6700
	1    0    0    -1  
$EndComp
$Comp
L GND #PWR01
U 1 1 5A920F08
P 2400 6000
F 0 "#PWR01" H 2400 5750 50  0001 C CNN
F 1 "GND" H 2400 5850 50  0000 C CNN
F 2 "" H 2400 6000 50  0001 C CNN
F 3 "" H 2400 6000 50  0001 C CNN
	1    2400 6000
	1    0    0    -1  
$EndComp
$Comp
L MCP1700-3302E_SOT23 U5
U 1 1 5A91F4C7
P 2400 5550
F 0 "U5" H 2250 5675 50  0000 C CNN
F 1 "MCP1700-3302E_SOT23" H 2400 5675 50  0000 L CNN
F 2 "TO_SOT_Packages_SMD:SOT-23" H 2400 5775 50  0001 C CNN
F 3 "" H 2400 5550 50  0001 C CNN
	1    2400 5550
	1    0    0    -1  
$EndComp
$Comp
L GND #PWR02
U 1 1 5A9210CC
P 1900 7000
F 0 "#PWR02" H 1900 6750 50  0001 C CNN
F 1 "GND" H 1900 6850 50  0000 C CNN
F 2 "" H 1900 7000 50  0001 C CNN
F 3 "" H 1900 7000 50  0001 C CNN
	1    1900 7000
	1    0    0    -1  
$EndComp
$Comp
L LMP91002 U3
U 1 1 5A921616
P 5600 5800
F 0 "U3" H 5600 5300 60  0000 C CNN
F 1 "LMP91002" H 5650 6400 60  0000 C CNN
F 2 "jacobs_footprints:NHL_14pin_WSON" H 5600 5300 60  0001 C CNN
F 3 "" H 5600 5300 60  0001 C CNN
	1    5600 5800
	1    0    0    -1  
$EndComp
$Comp
L GND #PWR03
U 1 1 5A921679
P 4850 6250
F 0 "#PWR03" H 4850 6000 50  0001 C CNN
F 1 "GND" H 4850 6100 50  0000 C CNN
F 2 "" H 4850 6250 50  0001 C CNN
F 3 "" H 4850 6250 50  0001 C CNN
	1    4850 6250
	1    0    0    -1  
$EndComp
$Comp
L GND #PWR04
U 1 1 5A921712
P 4600 5300
F 0 "#PWR04" H 4600 5050 50  0001 C CNN
F 1 "GND" H 4600 5150 50  0000 C CNN
F 2 "" H 4600 5300 50  0001 C CNN
F 3 "" H 4600 5300 50  0001 C CNN
	1    4600 5300
	1    0    0    -1  
$EndComp
$Comp
L GND #PWR05
U 1 1 5A93416D
P 1700 4400
F 0 "#PWR05" H 1700 4150 50  0001 C CNN
F 1 "GND" H 1700 4250 50  0000 C CNN
F 2 "" H 1700 4400 50  0001 C CNN
F 3 "" H 1700 4400 50  0001 C CNN
	1    1700 4400
	1    0    0    -1  
$EndComp
$Comp
L GND #PWR06
U 1 1 5A934584
P 9650 5850
F 0 "#PWR06" H 9650 5600 50  0001 C CNN
F 1 "GND" H 9650 5700 50  0000 C CNN
F 2 "" H 9650 5850 50  0001 C CNN
F 3 "" H 9650 5850 50  0001 C CNN
	1    9650 5850
	1    0    0    -1  
$EndComp
Text GLabel 8850 5250 0    60   Input ~ 0
LMP_OUT
Text GLabel 6800 6200 2    60   Output ~ 0
LMP_OUT
Text GLabel 10450 5250 2    60   BiDi ~ 0
SCL
Text GLabel 10450 5450 2    60   BiDi ~ 0
SDA
Text GLabel 5700 2050 0    60   Output ~ 0
TX
Text GLabel 5700 2200 0    60   Input ~ 0
RX
$Comp
L GND #PWR07
U 1 1 5A935696
P 5950 3700
F 0 "#PWR07" H 5950 3450 50  0001 C CNN
F 1 "GND" H 5950 3550 50  0000 C CNN
F 2 "" H 5950 3700 50  0001 C CNN
F 3 "" H 5950 3700 50  0001 C CNN
	1    5950 3700
	1    0    0    -1  
$EndComp
$Comp
L GND #PWR08
U 1 1 5A93574D
P 6600 4050
F 0 "#PWR08" H 6600 3800 50  0001 C CNN
F 1 "GND" H 6600 3900 50  0000 C CNN
F 2 "" H 6600 4050 50  0001 C CNN
F 3 "" H 6600 4050 50  0001 C CNN
	1    6600 4050
	1    0    0    -1  
$EndComp
$Comp
L GND #PWR09
U 1 1 5A9357A3
P 7450 4050
F 0 "#PWR09" H 7450 3800 50  0001 C CNN
F 1 "GND" H 7450 3900 50  0000 C CNN
F 2 "" H 7450 4050 50  0001 C CNN
F 3 "" H 7450 4050 50  0001 C CNN
	1    7450 4050
	1    0    0    -1  
$EndComp
$Comp
L GND #PWR010
U 1 1 5A935927
P 8100 3700
F 0 "#PWR010" H 8100 3450 50  0001 C CNN
F 1 "GND" H 8100 3550 50  0000 C CNN
F 2 "" H 8100 3700 50  0001 C CNN
F 3 "" H 8100 3700 50  0001 C CNN
	1    8100 3700
	1    0    0    -1  
$EndComp
Text GLabel 4350 5600 0    60   BiDi ~ 0
SCL
Text GLabel 4350 5750 0    60   BiDi ~ 0
SDA
$Comp
L GND #PWR011
U 1 1 5A936270
P 1700 2550
F 0 "#PWR011" H 1700 2300 50  0001 C CNN
F 1 "GND" H 1700 2400 50  0000 C CNN
F 2 "" H 1700 2550 50  0001 C CNN
F 3 "" H 1700 2550 50  0001 C CNN
	1    1700 2550
	1    0    0    -1  
$EndComp
Text GLabel 4650 2600 2    60   BiDi ~ 0
SCL
Text GLabel 4950 2700 2    60   BiDi ~ 0
SDA
Text GLabel 4750 2800 2    60   Input ~ 0
RX
Text GLabel 4500 2900 2    60   Input ~ 0
TX
$Comp
L LED LED1
U 1 1 5A9373DB
P 3050 5800
F 0 "LED1" H 3050 5900 50  0000 C CNN
F 1 "LED" H 3050 5700 50  0000 C CNN
F 2 "LEDs:LED_0805" H 3050 5800 50  0001 C CNN
F 3 "" H 3050 5800 50  0001 C CNN
	1    3050 5800
	0    -1   -1   0   
$EndComp
$Comp
L R R1
U 1 1 5A937888
P 3050 6200
F 0 "R1" V 3130 6200 50  0000 C CNN
F 1 "1k" V 3050 6200 50  0000 C CNN
F 2 "Resistors_SMD:R_0603" V 2980 6200 50  0001 C CNN
F 3 "" H 3050 6200 50  0001 C CNN
	1    3050 6200
	1    0    0    -1  
$EndComp
$Comp
L GND #PWR012
U 1 1 5A93792E
P 3050 6400
F 0 "#PWR012" H 3050 6150 50  0001 C CNN
F 1 "GND" H 3050 6250 50  0000 C CNN
F 2 "" H 3050 6400 50  0001 C CNN
F 3 "" H 3050 6400 50  0001 C CNN
	1    3050 6400
	1    0    0    -1  
$EndComp
$Comp
L C C1
U 1 1 5A938435
P 3350 5700
F 0 "C1" H 3375 5800 50  0000 L CNN
F 1 "C" H 3375 5600 50  0000 L CNN
F 2 "Capacitors_SMD:C_0805" H 3388 5550 50  0001 C CNN
F 3 "" H 3350 5700 50  0001 C CNN
	1    3350 5700
	1    0    0    -1  
$EndComp
$Comp
L GND #PWR013
U 1 1 5A938557
P 3350 5900
F 0 "#PWR013" H 3350 5650 50  0001 C CNN
F 1 "GND" H 3350 5750 50  0000 C CNN
F 2 "" H 3350 5900 50  0001 C CNN
F 3 "" H 3350 5900 50  0001 C CNN
	1    3350 5900
	1    0    0    -1  
$EndComp
$Comp
L TEST TP8
U 1 1 5A93908B
P 4350 2350
F 0 "TP8" H 4350 2650 50  0000 C BNN
F 1 "TEST" H 4350 2600 50  0000 C CNN
F 2 "Measurement_Points:Measurement_Point_Square-SMD-Pad_Small" H 4350 2350 50  0001 C CNN
F 3 "" H 4350 2350 50  0001 C CNN
	1    4350 2350
	1    0    0    -1  
$EndComp
$Comp
L TEST TP9
U 1 1 5A939217
P 4550 2350
F 0 "TP9" H 4550 2650 50  0000 C BNN
F 1 "TEST" H 4550 2600 50  0000 C CNN
F 2 "Measurement_Points:Measurement_Point_Square-SMD-Pad_Small" H 4550 2350 50  0001 C CNN
F 3 "" H 4550 2350 50  0001 C CNN
	1    4550 2350
	1    0    0    -1  
$EndComp
$Comp
L TEST TP4
U 1 1 5A9398D0
P 4350 3000
F 0 "TP4" H 4350 3300 50  0000 C BNN
F 1 "TEST" H 4350 3250 50  0000 C CNN
F 2 "Measurement_Points:Measurement_Point_Square-SMD-Pad_Small" H 4350 3000 50  0001 C CNN
F 3 "" H 4350 3000 50  0001 C CNN
	1    4350 3000
	-1   0    0    1   
$EndComp
$Comp
L TEST TP5
U 1 1 5A9399D3
P 4700 3000
F 0 "TP5" H 4700 3300 50  0000 C BNN
F 1 "TEST" H 4700 3250 50  0000 C CNN
F 2 "Measurement_Points:Measurement_Point_Square-SMD-Pad_Small" H 4700 3000 50  0001 C CNN
F 3 "" H 4700 3000 50  0001 C CNN
	1    4700 3000
	-1   0    0    1   
$EndComp
$Comp
L TEST TP13
U 1 1 5A939F80
P 6550 5900
F 0 "TP13" H 6550 6200 50  0000 C BNN
F 1 "TEST" H 6550 6150 50  0000 C CNN
F 2 "Measurement_Points:Measurement_Point_Square-SMD-Pad_Small" H 6550 5900 50  0001 C CNN
F 3 "" H 6550 5900 50  0001 C CNN
	1    6550 5900
	0    1    1    0   
$EndComp
$Comp
L TEST TP14
U 1 1 5A93A10C
P 6900 6050
F 0 "TP14" H 6900 6350 50  0000 C BNN
F 1 "TEST" H 6900 6300 50  0000 C CNN
F 2 "Measurement_Points:Measurement_Point_Square-SMD-Pad_Small" H 6900 6050 50  0001 C CNN
F 3 "" H 6900 6050 50  0001 C CNN
	1    6900 6050
	0    1    1    0   
$EndComp
$Comp
L TEST TP3
U 1 1 5A93A3EB
P 3300 5450
F 0 "TP3" H 3300 5750 50  0000 C BNN
F 1 "TEST" H 3300 5700 50  0000 C CNN
F 2 "Measurement_Points:Measurement_Point_Round-TH_Big" H 3300 5450 50  0001 C CNN
F 3 "" H 3300 5450 50  0001 C CNN
	1    3300 5450
	1    0    0    -1  
$EndComp
$Comp
L TEST TP1
U 1 1 5A93A90A
P 1650 6850
F 0 "TP1" H 1650 7150 50  0000 C BNN
F 1 "TEST" H 1650 7100 50  0000 C CNN
F 2 "Measurement_Points:Measurement_Point_Square-TH_Big" H 1650 6850 50  0001 C CNN
F 3 "" H 1650 6850 50  0001 C CNN
	1    1650 6850
	1    0    0    -1  
$EndComp
$Comp
L TEST TP2
U 1 1 5A93ABDE
P 1900 5500
F 0 "TP2" H 1900 5800 50  0000 C BNN
F 1 "TEST" H 1900 5750 50  0000 C CNN
F 2 "Measurement_Points:Measurement_Point_Square-SMD-Pad_Small" H 1900 5500 50  0001 C CNN
F 3 "" H 1900 5500 50  0001 C CNN
	1    1900 5500
	1    0    0    -1  
$EndComp
$Comp
L TEST TP15
U 1 1 5A93ADFF
P 6600 6300
F 0 "TP15" H 6600 6600 50  0000 C BNN
F 1 "TEST" H 6600 6550 50  0000 C CNN
F 2 "Measurement_Points:Measurement_Point_Square-SMD-Pad_Small" H 6600 6300 50  0001 C CNN
F 3 "" H 6600 6300 50  0001 C CNN
	1    6600 6300
	-1   0    0    1   
$EndComp
$Comp
L TEST TP10
U 1 1 5A93B101
P 6500 5050
F 0 "TP10" H 6500 5350 50  0000 C BNN
F 1 "TEST" H 6500 5300 50  0000 C CNN
F 2 "Measurement_Points:Measurement_Point_Square-SMD-Pad_Small" H 6500 5050 50  0001 C CNN
F 3 "" H 6500 5050 50  0001 C CNN
	1    6500 5050
	1    0    0    -1  
$EndComp
$Comp
L TEST TP11
U 1 1 5A93B21C
P 6700 5050
F 0 "TP11" H 6700 5350 50  0000 C BNN
F 1 "TEST" H 6700 5300 50  0000 C CNN
F 2 "Measurement_Points:Measurement_Point_Square-SMD-Pad_Small" H 6700 5050 50  0001 C CNN
F 3 "" H 6700 5050 50  0001 C CNN
	1    6700 5050
	1    0    0    -1  
$EndComp
$Comp
L TEST TP12
U 1 1 5A93B27E
P 6900 5050
F 0 "TP12" H 6900 5350 50  0000 C BNN
F 1 "TEST" H 6900 5300 50  0000 C CNN
F 2 "Measurement_Points:Measurement_Point_Square-SMD-Pad_Small" H 6900 5050 50  0001 C CNN
F 3 "" H 6900 5050 50  0001 C CNN
	1    6900 5050
	1    0    0    -1  
$EndComp
$Comp
L TEST TP16
U 1 1 5A93E40A
P 5650 3300
F 0 "TP16" H 5650 3600 50  0000 C BNN
F 1 "TEST" H 5650 3550 50  0000 C CNN
F 2 "Measurement_Points:Measurement_Point_Square-SMD-Pad_Small" H 5650 3300 50  0001 C CNN
F 3 "" H 5650 3300 50  0001 C CNN
	1    5650 3300
	1    0    0    -1  
$EndComp
NoConn ~ 1700 1800
NoConn ~ 1700 3400
NoConn ~ 1700 3500
NoConn ~ 4150 3600
NoConn ~ 4150 3500
NoConn ~ 4150 2300
NoConn ~ 4150 2400
NoConn ~ 4150 1400
NoConn ~ 4150 1500
NoConn ~ 4150 1600
NoConn ~ 4150 1700
NoConn ~ 4150 1800
NoConn ~ 4150 1900
NoConn ~ 4150 2000
NoConn ~ 4150 2100
NoConn ~ 4150 3000
NoConn ~ 4150 3100
NoConn ~ 4150 3200
NoConn ~ 4150 3300
NoConn ~ 5950 2350
NoConn ~ 5950 2500
NoConn ~ 5950 2700
NoConn ~ 5950 2800
NoConn ~ 5950 2900
NoConn ~ 5950 3000
NoConn ~ 5950 3100
NoConn ~ 8100 1800
NoConn ~ 8100 1950
NoConn ~ 8100 2100
NoConn ~ 8100 2250
NoConn ~ 8100 2400
NoConn ~ 8100 2550
NoConn ~ 8100 2700
NoConn ~ 8100 2850
NoConn ~ 8100 3000
NoConn ~ 8100 3150
NoConn ~ 6800 4000
NoConn ~ 6900 4000
NoConn ~ 7000 4000
NoConn ~ 7100 4000
NoConn ~ 7200 4000
NoConn ~ 7300 4000
NoConn ~ 4850 5900
$Comp
L +3.3V #PWR014
U 1 1 5A941CA3
P 2750 5350
F 0 "#PWR014" H 2750 5200 50  0001 C CNN
F 1 "+3.3V" H 2750 5490 50  0000 C CNN
F 2 "" H 2750 5350 50  0001 C CNN
F 3 "" H 2750 5350 50  0001 C CNN
	1    2750 5350
	1    0    0    -1  
$EndComp
$Comp
L +3.3V #PWR015
U 1 1 5A941DD3
P 4450 6050
F 0 "#PWR015" H 4450 5900 50  0001 C CNN
F 1 "+3.3V" H 4450 6190 50  0000 C CNN
F 2 "" H 4450 6050 50  0001 C CNN
F 3 "" H 4450 6050 50  0001 C CNN
	1    4450 6050
	1    0    0    -1  
$EndComp
$Comp
L +3.3V #PWR016
U 1 1 5A941E2C
P 1400 1550
F 0 "#PWR016" H 1400 1400 50  0001 C CNN
F 1 "+3.3V" H 1400 1690 50  0000 C CNN
F 2 "" H 1400 1550 50  0001 C CNN
F 3 "" H 1400 1550 50  0001 C CNN
	1    1400 1550
	1    0    0    -1  
$EndComp
$Comp
L +3.3V #PWR017
U 1 1 5A9421DF
P 9650 4850
F 0 "#PWR017" H 9650 4700 50  0001 C CNN
F 1 "+3.3V" H 9650 4990 50  0000 C CNN
F 2 "" H 9650 4850 50  0001 C CNN
F 3 "" H 9650 4850 50  0001 C CNN
	1    9650 4850
	1    0    0    -1  
$EndComp
$Comp
L +3.3V #PWR018
U 1 1 5A9434C6
P 5500 3400
F 0 "#PWR018" H 5500 3250 50  0001 C CNN
F 1 "+3.3V" H 5500 3540 50  0000 C CNN
F 2 "" H 5500 3400 50  0001 C CNN
F 3 "" H 5500 3400 50  0001 C CNN
	1    5500 3400
	1    0    0    -1  
$EndComp
$Comp
L Screw_Terminal_01x03 J2
U 1 1 5A9CAEFB
P 7550 5400
F 0 "J2" H 7550 5600 50  0000 C CNN
F 1 "Screw_Terminal_01x03" H 7550 5200 50  0000 C CNN
F 2 "TerminalBlocks_Phoenix:TerminalBlock_Phoenix_MPT-2.54mm_3pol" H 7550 5400 50  0001 C CNN
F 3 "" H 7550 5400 50  0001 C CNN
	1    7550 5400
	1    0    0    -1  
$EndComp
$Comp
L R R3
U 1 1 5A9F7610
P 4700 2300
F 0 "R3" V 4780 2300 50  0000 C CNN
F 1 "10k" V 4700 2300 50  0000 C CNN
F 2 "Resistors_SMD:R_0603" V 4630 2300 50  0001 C CNN
F 3 "" H 4700 2300 50  0001 C CNN
	1    4700 2300
	1    0    0    -1  
$EndComp
$Comp
L R R2
U 1 1 5A9F78A9
P 4900 2300
F 0 "R2" V 4980 2300 50  0000 C CNN
F 1 "10k" V 4900 2300 50  0000 C CNN
F 2 "Resistors_SMD:R_0603" V 4830 2300 50  0001 C CNN
F 3 "" H 4900 2300 50  0001 C CNN
	1    4900 2300
	1    0    0    -1  
$EndComp
$Comp
L +3.3V #PWR019
U 1 1 5A9F7D8A
P 4800 1750
F 0 "#PWR019" H 4800 1600 50  0001 C CNN
F 1 "+3.3V" H 4800 1890 50  0000 C CNN
F 2 "" H 4800 1750 50  0001 C CNN
F 3 "" H 4800 1750 50  0001 C CNN
	1    4800 1750
	1    0    0    -1  
$EndComp
$Comp
L R R5
U 1 1 5B0B0DC4
P 1450 2200
F 0 "R5" V 1530 2200 50  0000 C CNN
F 1 "22" V 1450 2200 50  0000 C CNN
F 2 "Resistors_SMD:R_0603" V 1380 2200 50  0001 C CNN
F 3 "" H 1450 2200 50  0001 C CNN
	1    1450 2200
	0    -1   -1   0   
$EndComp
$Comp
L R R4
U 1 1 5B0B1027
P 1200 2300
F 0 "R4" V 1280 2300 50  0000 C CNN
F 1 "22" V 1200 2300 50  0000 C CNN
F 2 "Resistors_SMD:R_0603" V 1130 2300 50  0001 C CNN
F 3 "" H 1200 2300 50  0001 C CNN
	1    1200 2300
	0    -1   -1   0   
$EndComp
$Comp
L C C2
U 1 1 5B0B165C
P 1250 2550
F 0 "C2" H 1275 2650 50  0000 L CNN
F 1 "C" H 1275 2450 50  0000 L CNN
F 2 "Capacitors_SMD:C_0805" H 1288 2400 50  0001 C CNN
F 3 "" H 1250 2550 50  0001 C CNN
	1    1250 2550
	1    0    0    -1  
$EndComp
$Comp
L GND #PWR020
U 1 1 5B0B1B62
P 1250 2750
F 0 "#PWR020" H 1250 2500 50  0001 C CNN
F 1 "GND" H 1250 2600 50  0000 C CNN
F 2 "" H 1250 2750 50  0001 C CNN
F 3 "" H 1250 2750 50  0001 C CNN
	1    1250 2750
	1    0    0    -1  
$EndComp
$Comp
L +3.3V #PWR021
U 1 1 5B0E0D9D
P 650 2400
F 0 "#PWR021" H 650 2250 50  0001 C CNN
F 1 "+3.3V" H 650 2540 50  0000 C CNN
F 2 "" H 650 2400 50  0001 C CNN
F 3 "" H 650 2400 50  0001 C CNN
	1    650  2400
	1    0    0    -1  
$EndComp
$Comp
L +5V #PWR022
U 1 1 5B0E1ABD
P 1200 1850
F 0 "#PWR022" H 1200 1700 50  0001 C CNN
F 1 "+5V" H 1200 1990 50  0000 C CNN
F 2 "" H 1200 1850 50  0001 C CNN
F 3 "" H 1200 1850 50  0001 C CNN
	1    1200 1850
	1    0    0    -1  
$EndComp
$Comp
L +5V #PWR023
U 1 1 5B0E1B2C
P 1700 1300
F 0 "#PWR023" H 1700 1150 50  0001 C CNN
F 1 "+5V" H 1700 1440 50  0000 C CNN
F 2 "" H 1700 1300 50  0001 C CNN
F 3 "" H 1700 1300 50  0001 C CNN
	1    1700 1300
	1    0    0    -1  
$EndComp
$Comp
L USB_OTG J3
U 1 1 5B0E202A
P 800 3600
F 0 "J3" H 600 4050 50  0000 L CNN
F 1 "USB_OTG" H 600 3950 50  0000 L CNN
F 2 "Connectors:USB_Mini-B" H 950 3550 50  0001 C CNN
F 3 "" H 950 3550 50  0001 C CNN
	1    800  3600
	1    0    0    -1  
$EndComp
$Comp
L GND #PWR024
U 1 1 5B0E2516
P 800 4050
F 0 "#PWR024" H 800 3800 50  0001 C CNN
F 1 "GND" H 800 3900 50  0000 C CNN
F 2 "" H 800 4050 50  0001 C CNN
F 3 "" H 800 4050 50  0001 C CNN
	1    800  4050
	1    0    0    -1  
$EndComp
$Comp
L +5V #PWR025
U 1 1 5B0E2784
P 750 3050
F 0 "#PWR025" H 750 2900 50  0001 C CNN
F 1 "+5V" H 750 3190 50  0000 C CNN
F 2 "" H 750 3050 50  0001 C CNN
F 3 "" H 750 3050 50  0001 C CNN
	1    750  3050
	1    0    0    -1  
$EndComp
Wire Wire Line
	1750 5550 2100 5550
Wire Wire Line
	2400 5850 2400 6000
Wire Wire Line
	1900 6900 1900 7000
Wire Wire Line
	6400 5300 7350 5300
Wire Wire Line
	6400 5750 6450 5750
Wire Wire Line
	6450 5750 6450 5800
Wire Wire Line
	6450 5800 5900 5800
Wire Wire Line
	5900 5800 5900 6100
Wire Wire Line
	5900 6100 4450 6100
Wire Wire Line
	4850 6100 4850 6050
Wire Wire Line
	4850 6200 4850 6250
Wire Wire Line
	4850 5300 4600 5300
Wire Wire Line
	2700 5550 3450 5550
Wire Wire Line
	2750 5550 2750 5350
Wire Wire Line
	4450 6100 4450 6050
Connection ~ 4850 6100
Wire Wire Line
	1700 4000 1700 4400
Connection ~ 1700 4100
Connection ~ 1700 4200
Connection ~ 1700 4300
Wire Wire Line
	9650 4950 9650 4850
Wire Wire Line
	9650 5750 9650 5850
Wire Wire Line
	6400 6200 6800 6200
Wire Wire Line
	9250 5250 8850 5250
Wire Wire Line
	9650 5800 9250 5800
Wire Wire Line
	9250 5800 9250 5450
Connection ~ 9650 5800
Wire Wire Line
	10050 5250 10450 5250
Wire Wire Line
	10050 5450 10450 5450
Wire Wire Line
	5950 2050 5700 2050
Wire Wire Line
	5950 2200 5700 2200
Wire Wire Line
	5500 3500 5950 3500
Wire Wire Line
	5950 3600 5950 3700
Wire Wire Line
	6600 4000 6600 4050
Wire Wire Line
	7450 4000 7450 4050
Wire Wire Line
	8100 3600 8100 3700
Wire Wire Line
	4850 5600 4350 5600
Wire Wire Line
	4850 5750 4350 5750
Connection ~ 1700 1500
Connection ~ 1700 1600
Connection ~ 1700 1700
Wire Wire Line
	1700 2500 1700 2550
Wire Wire Line
	4150 2800 4750 2800
Wire Wire Line
	4150 2600 4650 2600
Wire Wire Line
	4150 2900 4500 2900
Wire Wire Line
	3050 5950 3050 6050
Wire Wire Line
	3050 6350 3050 6400
Wire Wire Line
	3050 5550 3050 5650
Connection ~ 2750 5550
Connection ~ 3050 5550
Wire Wire Line
	3350 5850 3350 5900
Wire Wire Line
	4350 2350 4350 2600
Connection ~ 4350 2600
Wire Wire Line
	4150 2700 4950 2700
Wire Wire Line
	4550 2350 4550 2700
Connection ~ 4550 2700
Wire Wire Line
	4350 3000 4350 2900
Connection ~ 4350 2900
Wire Wire Line
	4700 3000 4700 2800
Connection ~ 4700 2800
Wire Wire Line
	6900 6050 6400 6050
Wire Wire Line
	6550 5900 6400 5900
Wire Wire Line
	3300 5450 3300 5550
Connection ~ 3300 5550
Wire Wire Line
	1250 6900 1900 6900
Wire Wire Line
	1650 6900 1650 6850
Connection ~ 1900 6900
Connection ~ 1900 5550
Wire Wire Line
	6600 6300 6600 6200
Connection ~ 6600 6200
Wire Wire Line
	6500 5050 6500 5300
Connection ~ 6500 5300
Wire Wire Line
	1900 5500 1900 6500
Wire Wire Line
	5650 3400 5950 3400
Wire Wire Line
	6400 5400 7350 5400
Wire Wire Line
	6700 5400 6700 5050
Wire Wire Line
	6400 5400 6400 5450
Connection ~ 6700 5400
Wire Wire Line
	7350 5600 7350 5500
Wire Wire Line
	7350 5600 6400 5600
Wire Wire Line
	6900 5050 6900 5600
Connection ~ 6900 5600
Wire Wire Line
	4700 2450 4600 2450
Wire Wire Line
	4600 2450 4600 2600
Connection ~ 4600 2600
Wire Wire Line
	4900 2450 4900 2700
Connection ~ 4900 2700
Wire Wire Line
	4700 2150 4700 1800
Wire Wire Line
	4700 1800 4900 1800
Wire Wire Line
	4900 1800 4900 2150
Wire Wire Line
	4800 1750 4800 1800
Connection ~ 4800 1800
Wire Wire Line
	1600 2200 1700 2200
Wire Wire Line
	1700 2300 1350 2300
Wire Wire Line
	650  2400 1700 2400
Wire Wire Line
	1250 2700 1250 2750
Connection ~ 1250 2400
Wire Wire Line
	1700 1500 1700 1700
Wire Wire Line
	1700 1600 1400 1600
Wire Wire Line
	1400 1550 1400 1900
Wire Wire Line
	1400 1900 1700 1900
Connection ~ 1400 1600
Wire Wire Line
	1700 2100 1700 2000
Wire Wire Line
	1700 2000 1200 2000
Wire Wire Line
	1200 2000 1200 1850
Wire Wire Line
	1700 1400 1700 1300
Wire Wire Line
	1050 2300 1050 3150
Wire Wire Line
	1300 2200 1000 2200
Wire Wire Line
	1000 2200 1000 3200
Wire Wire Line
	750  3050 750  3250
Wire Wire Line
	4850 5450 4750 5450
Wire Wire Line
	4750 5450 4750 5300
Connection ~ 4750 5300
$Comp
L TEST TP20
U 1 1 5B0E4023
P 4500 3800
F 0 "TP20" H 4500 4100 50  0000 C BNN
F 1 "TEST" H 4500 4050 50  0000 C CNN
F 2 "Measurement_Points:Measurement_Point_Square-SMD-Pad_Small" H 4500 3800 50  0001 C CNN
F 3 "" H 4500 3800 50  0001 C CNN
	1    4500 3800
	0    1    1    0   
$EndComp
$Comp
L TEST TP21
U 1 1 5B0E40B9
P 4500 3900
F 0 "TP21" H 4500 4200 50  0000 C BNN
F 1 "TEST" H 4500 4150 50  0000 C CNN
F 2 "Measurement_Points:Measurement_Point_Square-SMD-Pad_Small" H 4500 3900 50  0001 C CNN
F 3 "" H 4500 3900 50  0001 C CNN
	1    4500 3900
	0    1    1    0   
$EndComp
$Comp
L TEST TP22
U 1 1 5B0E4134
P 4500 4000
F 0 "TP22" H 4500 4300 50  0000 C BNN
F 1 "TEST" H 4500 4250 50  0000 C CNN
F 2 "Measurement_Points:Measurement_Point_Square-SMD-Pad_Small" H 4500 4000 50  0001 C CNN
F 3 "" H 4500 4000 50  0001 C CNN
	1    4500 4000
	0    1    1    0   
$EndComp
$Comp
L TEST TP23
U 1 1 5B0E41B2
P 4500 4100
F 0 "TP23" H 4500 4400 50  0000 C BNN
F 1 "TEST" H 4500 4350 50  0000 C CNN
F 2 "Measurement_Points:Measurement_Point_Square-SMD-Pad_Small" H 4500 4100 50  0001 C CNN
F 3 "" H 4500 4100 50  0001 C CNN
	1    4500 4100
	0    1    1    0   
$EndComp
$Comp
L TEST TP24
U 1 1 5B0E4233
P 4500 4200
F 0 "TP24" H 4500 4500 50  0000 C BNN
F 1 "TEST" H 4500 4450 50  0000 C CNN
F 2 "Measurement_Points:Measurement_Point_Square-SMD-Pad_Small" H 4500 4200 50  0001 C CNN
F 3 "" H 4500 4200 50  0001 C CNN
	1    4500 4200
	0    1    1    0   
$EndComp
$Comp
L TEST TP25
U 1 1 5B0E42B3
P 4500 4300
F 0 "TP25" H 4500 4600 50  0000 C BNN
F 1 "TEST" H 4500 4550 50  0000 C CNN
F 2 "Measurement_Points:Measurement_Point_Square-SMD-Pad_Small" H 4500 4300 50  0001 C CNN
F 3 "" H 4500 4300 50  0001 C CNN
	1    4500 4300
	0    1    1    0   
$EndComp
Wire Wire Line
	4150 3800 4500 3800
Wire Wire Line
	4150 3900 4500 3900
Wire Wire Line
	4150 4000 4500 4000
Wire Wire Line
	4150 4100 4500 4100
Wire Wire Line
	4150 4200 4500 4200
Wire Wire Line
	4150 4300 4500 4300
$Comp
L R R6
U 1 1 5B0E4B54
P 8400 3900
F 0 "R6" V 8480 3900 50  0000 C CNN
F 1 "1k" V 8400 3900 50  0000 C CNN
F 2 "Resistors_SMD:R_0603" V 8330 3900 50  0001 C CNN
F 3 "" H 8400 3900 50  0001 C CNN
	1    8400 3900
	1    0    0    -1  
$EndComp
Wire Wire Line
	8100 3300 8400 3300
$Comp
L LED LED2
U 1 1 5B0E4F4A
P 8400 3450
F 0 "LED2" H 8400 3550 50  0000 C CNN
F 1 "LED" H 8400 3350 50  0000 C CNN
F 2 "LEDs:LED_0805" H 8400 3450 50  0001 C CNN
F 3 "" H 8400 3450 50  0001 C CNN
	1    8400 3450
	0    -1   -1   0   
$EndComp
Wire Wire Line
	8400 3600 8400 3750
$Comp
L GND #PWR026
U 1 1 5B0E54BE
P 8400 4100
F 0 "#PWR026" H 8400 3850 50  0001 C CNN
F 1 "GND" H 8400 3950 50  0000 C CNN
F 2 "" H 8400 4100 50  0001 C CNN
F 3 "" H 8400 4100 50  0001 C CNN
	1    8400 4100
	1    0    0    -1  
$EndComp
Wire Wire Line
	8400 4100 8400 4050
Wire Wire Line
	5650 3400 5650 3300
Wire Wire Line
	5500 3500 5500 3400
NoConn ~ 5950 3200
$Comp
L TEST TP26
U 1 1 5B0E66F2
P 8250 3750
F 0 "TP26" H 8250 4050 50  0000 C BNN
F 1 "TEST" H 8250 4000 50  0000 C CNN
F 2 "Measurement_Points:Measurement_Point_Square-SMD-Pad_Small" H 8250 3750 50  0001 C CNN
F 3 "" H 8250 3750 50  0001 C CNN
	1    8250 3750
	-1   0    0    1   
$EndComp
Wire Wire Line
	8100 3450 8250 3450
Wire Wire Line
	8250 3450 8250 3750
NoConn ~ 1100 3800
NoConn ~ 700  4000
$Comp
L TEST TP17
U 1 1 5B0E7FBB
P 1450 6850
F 0 "TP17" H 1450 7150 50  0000 C BNN
F 1 "TEST" H 1450 7100 50  0000 C CNN
F 2 "Measurement_Points:Measurement_Point_Square-TH_Big" H 1450 6850 50  0001 C CNN
F 3 "" H 1450 6850 50  0001 C CNN
	1    1450 6850
	1    0    0    -1  
$EndComp
$Comp
L TEST TP6
U 1 1 5B0E805A
P 1250 6850
F 0 "TP6" H 1250 7150 50  0000 C BNN
F 1 "TEST" H 1250 7100 50  0000 C CNN
F 2 "Measurement_Points:Measurement_Point_Square-TH_Big" H 1250 6850 50  0001 C CNN
F 3 "" H 1250 6850 50  0001 C CNN
	1    1250 6850
	1    0    0    -1  
$EndComp
Wire Wire Line
	1450 6900 1450 6850
Connection ~ 1650 6900
Wire Wire Line
	1250 6900 1250 6850
Connection ~ 1450 6900
Wire Wire Line
	1450 2800 1700 2800
Wire Wire Line
	800  4000 800  4050
Wire Wire Line
	1100 3400 1100 3250
Wire Wire Line
	1100 3250 750  3250
Wire Wire Line
	1000 3200 1150 3200
Wire Wire Line
	1150 3200 1150 3600
Wire Wire Line
	1150 3600 1100 3600
Wire Wire Line
	1050 3150 1200 3150
Wire Wire Line
	1200 3150 1200 3700
Wire Wire Line
	1200 3700 1100 3700
$Comp
L TEST TP18
U 1 1 5B0EAD23
P 1750 5500
F 0 "TP18" H 1750 5800 50  0000 C BNN
F 1 "TEST" H 1750 5750 50  0000 C CNN
F 2 "Measurement_Points:Measurement_Point_Square-SMD-Pad_Small" H 1750 5500 50  0001 C CNN
F 3 "" H 1750 5500 50  0001 C CNN
	1    1750 5500
	1    0    0    -1  
$EndComp
Wire Wire Line
	1750 5550 1750 5500
$Comp
L TEST TP19
U 1 1 5B0EAE70
P 3450 5450
F 0 "TP19" H 3450 5750 50  0000 C BNN
F 1 "TEST" H 3450 5700 50  0000 C CNN
F 2 "Measurement_Points:Measurement_Point_Round-TH_Big" H 3450 5450 50  0001 C CNN
F 3 "" H 3450 5450 50  0001 C CNN
	1    3450 5450
	1    0    0    -1  
$EndComp
Wire Wire Line
	3450 5550 3450 5450
Connection ~ 3350 5550
$Comp
L TEST TP7
U 1 1 5B0ECB9F
P 1450 2950
F 0 "TP7" H 1450 3250 50  0000 C BNN
F 1 "TEST" H 1450 3200 50  0000 C CNN
F 2 "Measurement_Points:Measurement_Point_Square-SMD-Pad_Small" H 1450 2950 50  0001 C CNN
F 3 "" H 1450 2950 50  0001 C CNN
	1    1450 2950
	-1   0    0    1   
$EndComp
Wire Wire Line
	1450 2800 1450 2950
$EndSCHEMATC
